EESchema Schematic File Version 2
LIBS:power
LIBS:device
LIBS:transistors
LIBS:conn
LIBS:linear
LIBS:regul
LIBS:74xx
LIBS:cmos4000
LIBS:adc-dac
LIBS:memory
LIBS:xilinx
LIBS:microcontrollers
LIBS:dsp
LIBS:microchip
LIBS:analog_switches
LIBS:motorola
LIBS:texas
LIBS:intel
LIBS:audio
LIBS:interface
LIBS:digital-audio
LIBS:philips
LIBS:display
LIBS:cypress
LIBS:siliconi
LIBS:opto
LIBS:atmel
LIBS:contrib
LIBS:valves
LIBS:dk_Addressable-Specialty
LIBS:dk_Alarms-Buzzers-and-Sirens
LIBS:dk_Automotive-Relays
LIBS:dk_Balun
LIBS:dk_Barrel-Audio-Connectors
LIBS:dk_Battery-Holders-Clips-Contacts
LIBS:dk_Clock-Timing-Clock-Generators-PLLs-Frequency-Synthesizers
LIBS:dk_Clock-Timing-Programmable-Timers-and-Oscillators
LIBS:dk_Clock-Timing-Real-Time-Clocks
LIBS:dk_Coaxial-Connectors-RF
LIBS:dk_Current-Transducers
LIBS:dk_Data-Acquisition-ADCs-DACs-Special-Purpose
LIBS:dk_Data-Acquisition-Analog-to-Digital-Converters-ADC
LIBS:dk_Data-Acquisition-Digital-Potentiometers
LIBS:dk_Data-Acquisition-Digital-to-Analog-Converters-DAC
LIBS:dk_Data-Acquisition-Touch-Screen-Controllers
LIBS:dk_DC-DC-Converters
LIBS:dk_Digital-Isolators
LIBS:dk_Diodes-Bridge-Rectifiers
LIBS:dk_Diodes-Rectifiers-Arrays
LIBS:dk_Diodes-Rectifiers-Single
LIBS:dk_Diodes-Zener-Single
LIBS:dk_Display-Modules-LCD-OLED-Graphic
LIBS:dk_Display-Modules-LED-Character-and-Numeric
LIBS:dk_D-Sub-Connectors
LIBS:dk_Embedded-Microcontrollers
LIBS:dk_Encoders
LIBS:dk_Evaluation-Boards-Sensors
LIBS:dk_Ferrite-Beads-and-Chips
LIBS:dk_Fixed-Inductors
LIBS:dk_Fuses
LIBS:dk_Gas-Sensors
LIBS:dk_Humidity-Moisture-Sensors
LIBS:dk_Image-Sensors-Camera
LIBS:dk_Infrared-UV-Visible-Emitters
LIBS:dk_Inrush-Current-Limiters-ICL
LIBS:dk_Interface-Analog-Switches-Multiplexers-Demultiplexers
LIBS:dk_Interface-Analog-Switches-Special-Purpose
LIBS:dk_Interface-Controllers
LIBS:dk_Interface-Drivers-Receivers-Transceivers
LIBS:dk_Interface-I-O-Expanders
LIBS:dk_Interface-Modules
LIBS:dk_Interface-Sensor-and-Detector-Interfaces
LIBS:dk_Interface-Sensor-Capacitive-Touch
LIBS:dk_Interface-Specialized
LIBS:dk_LED-Indication-Discrete
LIBS:dk_LEDs-Circuit-Board-Indicators-Arrays-Light-Bars-Bar-Graphs
LIBS:dk_Linear-Amplifiers-Audio
LIBS:dk_Linear-Amplifiers-Instrumentation-OP-Amps-Buffer-Amps
LIBS:dk_Linear-Comparators
LIBS:dk_Logic-Buffers-Drivers-Receivers-Transceivers
LIBS:dk_Logic-Flip-Flops
LIBS:dk_Logic-Gates-and-Inverters
LIBS:dk_Logic-Multivibrators
LIBS:dk_Logic-Shift-Registers
LIBS:dk_Logic-Signal-Switches-Multiplexers-Decoders
LIBS:dk_Logic-Translators-Level-Shifters
LIBS:dk_Magnetic-Sensors-Compass-Magnetic-Field-Modules
LIBS:dk_Magnetic-Sensors-Linear-Compass-ICs
LIBS:dk_Magnetic-Sensors-Switches-Solid-State
LIBS:dk_Memory
LIBS:dk_Memory-Connectors-PC-Card-Sockets
LIBS:dk_Microphones
LIBS:dk_Modular-Connectors-Jacks
LIBS:dk_Modular-Connectors-Jacks-With-Magnetics
LIBS:dk_Motion-Sensors-Accelerometers
LIBS:dk_Motion-Sensors-IMUs-Inertial-Measurement-Units
LIBS:dk_Motion-Sensors-Tilt-Switches
LIBS:dk_Navigation-Switches-Joystick
LIBS:dk_Optical-Sensors-Ambient-Light-IR-UV-Sensors
LIBS:dk_Optical-Sensors-Photo-Detectors-Remote-Receiver
LIBS:dk_Optical-Sensors-Photodiodes
LIBS:dk_Optical-Sensors-Phototransistors
LIBS:dk_Optical-Sensors-Reflective-Analog-Output
LIBS:dk_Optoisolators-Logic-Output
LIBS:dk_Optoisolators-Transistor-Photovoltaic-Output
LIBS:dk_Optoisolators-Triac-SCR-Output
LIBS:dk_Oscillators
LIBS:dk_PMIC-AC-DC-Converters-Offline-Switchers
LIBS:dk_PMIC-Battery-Chargers
LIBS:dk_PMIC-Battery-Management
LIBS:dk_PMIC-Current-Regulation-Management
LIBS:dk_PMIC-Full-Half-Bridge-Drivers
LIBS:dk_PMIC-Gate-Drivers
LIBS:dk_PMIC-LED-Drivers
LIBS:dk_PMIC-Motor-Drivers-Controllers
LIBS:dk_PMIC-OR-Controllers-Ideal-Diodes
LIBS:dk_PMIC-Power-Distribution-Switches-Load-Drivers
LIBS:dk_PMIC-Power-Management-Specialized
LIBS:dk_PMIC-RMS-to-DC-Converters
LIBS:dk_PMIC-Supervisors
LIBS:dk_PMIC-Thermal-Management
LIBS:dk_PMIC-V-F-and-F-V-Converters
LIBS:dk_PMIC-Voltage-Reference
LIBS:dk_PMIC-Voltage-Regulators-DC-DC-Switching-Controllers
LIBS:dk_PMIC-Voltage-Regulators-DC-DC-Switching-Regulators
LIBS:dk_PMIC-Voltage-Regulators-Linear
LIBS:dk_PMIC-Voltage-Regulators-Special-Purpose
LIBS:dk_Power-Relays-Over-2-Amps
LIBS:dk_Pressure-Sensors-Transducers
LIBS:dk_Programmable-Oscillators
LIBS:dk_Pushbutton-Switches
LIBS:dk_Rectangular-Connectors-Headers-Male-Pins
LIBS:dk_Reed-Relays
LIBS:dk_Resistor-Networks-Arrays
LIBS:dk_RF-Amplifiers
LIBS:dk_RF-Antennas
LIBS:dk_RF-Demodulators
LIBS:dk_RF-Detectors
LIBS:dk_RF-Evaluation-and-Development-Kits-Boards
LIBS:dk_RFID-RF-Access-Monitoring-ICs
LIBS:dk_RF-Receivers
LIBS:dk_RF-Switches
LIBS:dk_RF-Transceiver-ICs
LIBS:dk_RF-Transceiver-Modules
LIBS:dk_RF-Transmitters
LIBS:dk_Rotary-Potentiometers-Rheostats
LIBS:dk_Sensors-Transducers_Accessories
LIBS:dk_Signal-Relays-Up-to-2-Amps
LIBS:dk_Slide-Switches
LIBS:dk_Solid-State-Relays
LIBS:dk_Specialized-ICs
LIBS:dk_Specialized-Sensors
LIBS:dk_Surge-Suppression-ICs
LIBS:dk_Tactile-Switches
LIBS:dk_Temperature-Sensors-Analog-and-Digital-Output
LIBS:dk_Thermal-Cutoffs-Thermal-Fuses
LIBS:dk_Thyristors-DIACs-SIDACs
LIBS:dk_Thyristors-SCRs
LIBS:dk_Thyristors-TRIACs
LIBS:dk_Toggle-Switches
LIBS:dk_Transistors-Bipolar-BJT-Arrays
LIBS:dk_Transistors-Bipolar-BJT-RF
LIBS:dk_Transistors-Bipolar-BJT-Single
LIBS:dk_Transistors-Bipolar-BJT-Single-Pre-Biased
LIBS:dk_Transistors-FETs-MOSFETs-Arrays
LIBS:dk_Transistors-FETs-MOSFETs-RF
LIBS:dk_Transistors-FETs-MOSFETs-Single
LIBS:dk_Transistors-JFETs
LIBS:dk_Trimmer-Potentiometers
LIBS:dk_TVS-Diodes
LIBS:dk_TVS-Mixed-Technology
LIBS:dk_USB-DVI-HDMI-Connectors
LIBS:IRLML6402
LIBS:r_zigzag
LIBS:rfcom
LIBS:MAX2769CETI_
LIBS:sawtek-855969
LIBS:93LC46B-E_SN
LIBS:OscillatorTaitien
LIBS:maxim
LIBS:MAX8510EXK21
LIBS:LT1719
LIBS:LT1719S6B
LIBS:LT1719CS6TRPBF
LIBS:usb_gps-cache
EELAYER 25 0
EELAYER END
$Descr A4 11693 8268
encoding utf-8
Sheet 3 3
Title ""
Date ""
Rev ""
Comp ""
Comment1 ""
Comment2 ""
Comment3 ""
Comment4 ""
$EndDescr
$Comp
L MAX2769CETI+ U6
U 1 1 5B22277F
P 6675 2250
F 0 "U6" H 6489 3612 50 0000 L BNN
F 1 "MAX2769CETI+" H 6367 677 50 0000 L BNN
F 2 "rf:TQFP_29_EP_MAX2769" H 6675 2250 50 0001 L BNN
F 3 "4.05 USD" H 6675 2250 50 0001 L BNN
F 4 "MAX2769CETI+" H 6675 2250 50 0001 L BNN "Field4"
F 5 "Warning" H 6675 2250 50 0001 L BNN "Field5"
F 6 "Universal Gnss Rx, 8mhz-44mhz, Tqfn-28" H 6675 2250 50 0001 L BNN "Field6"
F 7 "Maxim Integrated" H 6675 2250 50 0001 L BNN "Field7"
F 8 "TQFN-28 Maxim Integrated" H 6675 2250 50 0001 L BNN "Field8"
F 9 "Maxim" H 0 0 50 0001 C CNN "MFR"
F 10 "MAX2769CETI+" H 0 0 50 0001 C CNN "MPN"
F 11 "Mouser" H 0 0 50 0001 C CNN "SPR"
F 12 "700-MAX2769CETI+" H 0 0 50 0001 C CNN "SPN"
F 13 "-" H 0 0 50 0001 C CNN "SPURL"
	1    6675 2250
	1    0    0    -1  
$EndComp
$Comp
L C_Small C20
U 1 1 5B22294B
P 4475 2850
F 0 "C20" H 4485 2920 50 0000 L CNN
F 1 "3300pF" V 4525 2500 50 0000 L CNN
F 2 "Capacitors_SMD:C_0603_HandSoldering" H 4475 2850 50 0001 C CNN
F 3 "" H 4475 2850 50 0001 C CNN
F 4 "AVX" H 0 0 50 0001 C CNN "MFR"
F 5 "06035C332KAT4A" H 0 0 50 0001 C CNN "MPN"
F 6 "Digikey" H 0 0 50 0001 C CNN "SPR"
F 7 "478-10681-1-ND" H 0 0 50 0001 C CNN "SPN"
F 8 "-" H 0 0 50 0001 C CNN "SPURL"
	1    4475 2850
	0    -1   -1   0   
$EndComp
$Comp
L C_Small C11
U 1 1 5B222A24
P 2725 3000
F 0 "C11" H 2735 3070 50 0000 L CNN
F 1 ".1uF" H 2735 2920 50 0000 L CNN
F 2 "Capacitors_SMD:C_0402" H 2725 3000 50 0001 C CNN
F 3 "" H 2725 3000 50 0001 C CNN
F 4 "TDK" H 0 0 50 0001 C CNN "MFR"
F 5 "CGA2B1X7R1C104K050BC" H 0 0 50 0001 C CNN "MPN"
F 6 "Digikey" H 0 0 50 0001 C CNN "SPR"
F 7 "445-5613-1-ND" H 0 0 50 0001 C CNN "SPN"
F 8 "-" H 0 0 50 0001 C CNN "SPURL"
	1    2725 3000
	1    0    0    -1  
$EndComp
$Comp
L GND #PWR023
U 1 1 5B222B6C
P 2725 3250
F 0 "#PWR023" H 2725 3000 50 0001 C CNN
F 1 "GND" H 2725 3100 50 0000 C CNN
F 2 "" H 2725 3250 50 0000 C CNN
F 3 "" H 2725 3250 50 0000 C CNN
	1    2725 3250
	1    0    0    -1  
$EndComp
$Comp
L C_Small C13
U 1 1 5B222C2B
P 3175 1900
F 0 "C13" H 3185 1970 50 0000 L CNN
F 1 ".1uF" H 3185 1820 50 0000 L CNN
F 2 "Capacitors_SMD:C_0402" H 3175 1900 50 0001 C CNN
F 3 "" H 3175 1900 50 0001 C CNN
F 4 "TDK" H 0 0 50 0001 C CNN "MFR"
F 5 "CGA2B1X7R1C104K050BC" H 0 0 50 0001 C CNN "MPN"
F 6 "Digikey" H 0 0 50 0001 C CNN "SPR"
F 7 "445-5613-1-ND" H 0 0 50 0001 C CNN "SPN"
F 8 "-" H 0 0 50 0001 C CNN "SPURL"
	1    3175 1900
	1    0    0    -1  
$EndComp
$Comp
L C_Small C14
U 1 1 5B222D43
P 3475 1900
F 0 "C14" H 3485 1970 50 0000 L CNN
F 1 ".1uF" H 3485 1820 50 0000 L CNN
F 2 "Capacitors_SMD:C_0402" H 3475 1900 50 0001 C CNN
F 3 "" H 3475 1900 50 0001 C CNN
F 4 "TDK" H 0 0 50 0001 C CNN "MFR"
F 5 "CGA2B1X7R1C104K050BC" H 0 0 50 0001 C CNN "MPN"
F 6 "Digikey" H 0 0 50 0001 C CNN "SPR"
F 7 "445-5613-1-ND" H 0 0 50 0001 C CNN "SPN"
F 8 "-" H 0 0 50 0001 C CNN "SPURL"
	1    3475 1900
	1    0    0    -1  
$EndComp
$Comp
L C_Small C15
U 1 1 5B222E30
P 3775 1900
F 0 "C15" H 3785 1970 50 0000 L CNN
F 1 ".1uF" H 3785 1820 50 0000 L CNN
F 2 "Capacitors_SMD:C_0402" H 3775 1900 50 0001 C CNN
F 3 "" H 3775 1900 50 0001 C CNN
F 4 "TDK" H 0 0 50 0001 C CNN "MFR"
F 5 "CGA2B1X7R1C104K050BC" H 0 0 50 0001 C CNN "MPN"
F 6 "Digikey" H 0 0 50 0001 C CNN "SPR"
F 7 "445-5613-1-ND" H 0 0 50 0001 C CNN "SPN"
F 8 "-" H 0 0 50 0001 C CNN "SPURL"
	1    3775 1900
	1    0    0    -1  
$EndComp
$Comp
L C_Small C16
U 1 1 5B222E72
P 4075 1900
F 0 "C16" H 4085 1970 50 0000 L CNN
F 1 ".1uF" H 4085 1820 50 0000 L CNN
F 2 "Capacitors_SMD:C_0402" H 4075 1900 50 0001 C CNN
F 3 "" H 4075 1900 50 0001 C CNN
F 4 "TDK" H 0 0 50 0001 C CNN "MFR"
F 5 "CGA2B1X7R1C104K050BC" H 0 0 50 0001 C CNN "MPN"
F 6 "Digikey" H 0 0 50 0001 C CNN "SPR"
F 7 "445-5613-1-ND" H 0 0 50 0001 C CNN "SPN"
F 8 "-" H 0 0 50 0001 C CNN "SPURL"
	1    4075 1900
	1    0    0    -1  
$EndComp
$Comp
L C_Small C19
U 1 1 5B222EB0
P 4325 1900
F 0 "C19" H 4335 1970 50 0000 L CNN
F 1 ".1nF" H 4335 1820 50 0000 L CNN
F 2 "Capacitors_SMD:C_0805_HandSoldering" H 4325 1900 50 0001 C CNN
F 3 "" H 4325 1900 50 0001 C CNN
F 4 "Kemet" H 0 0 50 0001 C CNN "MFR"
F 5 "C0805C101K4RAC7800" H 0 0 50 0001 C CNN "MPN"
F 6 "Digikey" H 0 0 50 0001 C CNN "SPR"
F 7 "399-15003-1-ND" H 0 0 50 0001 C CNN "SPN"
F 8 "-" H 0 0 50 0001 C CNN "SPURL"
	1    4325 1900
	1    0    0    -1  
$EndComp
$Comp
L C_Small C21
U 1 1 5B222F1B
P 4625 1900
F 0 "C21" H 4635 1970 50 0000 L CNN
F 1 ".1uF" H 4635 1820 50 0000 L CNN
F 2 "Capacitors_SMD:C_0402" H 4625 1900 50 0001 C CNN
F 3 "" H 4625 1900 50 0001 C CNN
F 4 "TDK" H 0 0 50 0001 C CNN "MFR"
F 5 "CGA2B1X7R1C104K050BC" H 0 0 50 0001 C CNN "MPN"
F 6 "Digikey" H 0 0 50 0001 C CNN "SPR"
F 7 "445-5613-1-ND" H 0 0 50 0001 C CNN "SPN"
F 8 "-" H 0 0 50 0001 C CNN "SPURL"
	1    4625 1900
	1    0    0    -1  
$EndComp
$Comp
L C_Small C22
U 1 1 5B222F73
P 4925 1900
F 0 "C22" H 4935 1970 50 0000 L CNN
F 1 ".1uF" H 4935 1820 50 0000 L CNN
F 2 "Capacitors_SMD:C_0402" H 4925 1900 50 0001 C CNN
F 3 "" H 4925 1900 50 0001 C CNN
F 4 "TDK" H 0 0 50 0001 C CNN "MFR"
F 5 "CGA2B1X7R1C104K050BC" H 0 0 50 0001 C CNN "MPN"
F 6 "Digikey" H 0 0 50 0001 C CNN "SPR"
F 7 "445-5613-1-ND" H 0 0 50 0001 C CNN "SPN"
F 8 "-" H 0 0 50 0001 C CNN "SPURL"
	1    4925 1900
	1    0    0    -1  
$EndComp
$Comp
L GND #PWR024
U 1 1 5B223315
P 4925 2150
F 0 "#PWR024" H 4925 1900 50 0001 C CNN
F 1 "GND" H 4925 2000 50 0000 C CNN
F 2 "" H 4925 2150 50 0000 C CNN
F 3 "" H 4925 2150 50 0000 C CNN
	1    4925 2150
	1    0    0    -1  
$EndComp
$Comp
L C_Small C28
U 1 1 5B223AF8
P 8825 3150
F 0 "C28" H 8835 3220 50 0000 L CNN
F 1 ".47nF" V 8875 2800 50 0000 L CNN
F 2 "Capacitors_SMD:C_0402" H 8825 3150 50 0001 C CNN
F 3 "" H 8825 3150 50 0001 C CNN
F 4 "AVX" H 0 0 50 0001 C CNN "MFR"
F 5 "04025C471KAT2A" H 0 0 50 0001 C CNN "MPN"
F 6 "Digikey" H 0 0 50 0001 C CNN "SPR"
F 7 "478-1097-1-ND" H 0 0 50 0001 C CNN "SPN"
F 8 "-" H 0 0 50 0001 C CNN "SPURL"
	1    8825 3150
	0    -1   -1   0   
$EndComp
$Comp
L C_Small C26
U 1 1 5B223F00
P 8175 1750
F 0 "C26" H 8185 1820 50 0000 L CNN
F 1 "10nF" V 8325 1600 50 0000 L CNN
F 2 "Capacitors_SMD:C_0402" H 8175 1750 50 0001 C CNN
F 3 "" H 8175 1750 50 0001 C CNN
F 4 "Murata" H 0 0 50 0001 C CNN "MFR"
F 5 "GRM155R71C103KA01D" H 0 0 50 0001 C CNN "MPN"
F 6 "Digikey" H 0 0 50 0001 C CNN "SPR"
F 7 "490-1313-1-ND" H 0 0 50 0001 C CNN "SPN"
F 8 "-" H 0 0 50 0001 C CNN "SPURL"
	1    8175 1750
	0    -1   -1   0   
$EndComp
$Comp
L C_Small C25
U 1 1 5B224008
P 7675 2950
F 0 "C25" H 7685 3020 50 0000 L CNN
F 1 "27pF" H 7685 2870 50 0000 L CNN
F 2 "Capacitors_SMD:C_0805_HandSoldering" H 7675 2950 50 0001 C CNN
F 3 "" H 7675 2950 50 0001 C CNN
F 4 "AVX" H 0 0 50 0001 C CNN "MFR"
F 5 "08055C270KAT2A" H 0 0 50 0001 C CNN "MPN"
F 6 "Digikey" H 0 0 50 0001 C CNN "SPR"
F 7 "478-11394-1-ND" H 0 0 50 0001 C CNN "SPN"
F 8 "-" H 0 0 50 0001 C CNN "SPURL"
	1    7675 2950
	1    0    0    -1  
$EndComp
$Comp
L C_Small C27
U 1 1 5B224134
P 8275 2950
F 0 "C27" H 8285 3020 50 0000 L CNN
F 1 "470pF" H 8285 2870 50 0000 L CNN
F 2 "Capacitors_SMD:C_0402" H 8275 2950 50 0001 C CNN
F 3 "" H 8275 2950 50 0001 C CNN
F 4 "AVX" H 0 0 50 0001 C CNN "MFR"
F 5 "04025C471KAT2A" H 0 0 50 0001 C CNN "MPN"
F 6 "Digikey" H 0 0 50 0001 C CNN "SPR"
F 7 "478-1097-1-ND" H 0 0 50 0001 C CNN "SPN"
F 8 "-" H 0 0 50 0001 C CNN "SPURL"
	1    8275 2950
	1    0    0    -1  
$EndComp
$Comp
L R R13
U 1 1 5B22418D
P 7975 2700
F 0 "R13" V 8055 2700 50 0000 C CNN
F 1 "20K" V 7900 2700 50 0000 C CNN
F 2 "Resistors_SMD:R_0603_HandSoldering" V 7830 2700 50 0001 C CNN
F 3 "" H 7900 2700 50 0001 C CNN
F 4 "Bourns" H 0 0 50 0001 C CNN "MFR"
F 5 "CRT0603-FZ-2002EST" H 0 0 50 0001 C CNN "MPN"
F 6 "Digikey" H 0 0 50 0001 C CNN "SPR"
F 7 "CRT0603-FZ-2002ESTCT-ND" H 0 0 50 0001 C CNN "SPN"
F 8 "-" H 0 0 50 0001 C CNN "SPURL"
	1    7975 2700
	0    1    1    0   
$EndComp
$Comp
L GND #PWR025
U 1 1 5B2243D4
P 8275 3100
F 0 "#PWR025" H 8275 2850 50 0001 C CNN
F 1 "GND" H 8275 2950 50 0000 C CNN
F 2 "" H 8275 3100 50 0000 C CNN
F 3 "" H 8275 3100 50 0000 C CNN
	1    8275 3100
	1    0    0    -1  
$EndComp
$Comp
L GND #PWR026
U 1 1 5B224439
P 7675 3100
F 0 "#PWR026" H 7675 2850 50 0001 C CNN
F 1 "GND" H 7675 2950 50 0000 C CNN
F 2 "" H 7675 3100 50 0000 C CNN
F 3 "" H 7675 3100 50 0000 C CNN
	1    7675 3100
	1    0    0    -1  
$EndComp
$Comp
L GND #PWR027
U 1 1 5B234DA4
P 4725 4050
F 0 "#PWR027" H 4725 3800 50 0001 C CNN
F 1 "GND" H 4725 3900 50 0000 C CNN
F 2 "" H 4725 4050 50 0000 C CNN
F 3 "" H 4725 4050 50 0000 C CNN
	1    4725 4050
	1    0    0    -1  
$EndComp
$Comp
L R R11
U 1 1 5B236218
P 4725 3450
F 0 "R11" V 4805 3450 50 0000 C CNN
F 1 "NC" V 4650 3450 50 0000 C CNN
F 2 "Resistors_SMD:R_0805_HandSoldering" V 4580 3450 50 0001 C CNN
F 3 "" H 4650 3450 50 0001 C CNN
F 4 "Vishay" H 0 0 50 0001 C CNN "MFR"
F 5 "CRCW06030000Z0EBC" H 0 0 50 0001 C CNN "MPN"
F 6 "Digikey" H 0 0 50 0001 C CNN "SPR"
F 7 "541-4013-1-ND" H 0 0 50 0001 C CNN "SPN"
F 8 "-" H 0 0 50 0001 C CNN "SPURL"
	1    4725 3450
	-1   0    0    1   
$EndComp
$Comp
L R R12
U 1 1 5B236373
P 4725 3850
F 0 "R12" V 4805 3850 50 0000 C CNN
F 1 "0" V 4650 3850 50 0000 C CNN
F 2 "Resistors_SMD:R_0805_HandSoldering" V 4580 3850 50 0001 C CNN
F 3 "" H 4650 3850 50 0001 C CNN
F 4 "Vishay" H 0 0 50 0001 C CNN "MFR"
F 5 "CRCW06030000Z0EBC" H 0 0 50 0001 C CNN "MPN"
F 6 "Digikey" H 0 0 50 0001 C CNN "SPR"
F 7 "541-4013-1-ND" H 0 0 50 0001 C CNN "SPN"
F 8 "-" H 0 0 50 0001 C CNN "SPURL"
	1    4725 3850
	-1   0    0    1   
$EndComp
$Comp
L GND #PWR028
U 1 1 5B238E15
P 5825 3450
F 0 "#PWR028" H 5825 3200 50 0001 C CNN
F 1 "GND" H 5825 3300 50 0000 C CNN
F 2 "" H 5825 3450 50 0000 C CNN
F 3 "" H 5825 3450 50 0000 C CNN
	1    5825 3450
	1    0    0    -1  
$EndComp
$Comp
L CONSMA001-SMD-G J3
U 1 1 5B239872
P 4100 5375
F 0 "J3" H 3950 5425 60 0000 L CNN
F 1 "Edge Launch SMA" H 3600 5525 60 0000 L CNN
F 2 "digikey-footprints:RF_SMA_Receptical_Vertical_CONSMA001-SMD-G" H 4300 5575 60 0001 L CNN
F 3 "https://linxtechnologies.com/wp/wp-content/uploads/consma001-smd-g.pdf" H 4300 5675 60 0001 L CNN
F 4 "CONSMA001-SMD-G-ND" H 4300 5775 60 0001 L CNN "Digi-Key_PN"
F 5 "CONSMA001-SMD-G" H 4300 5875 60 0001 L CNN "MPN"
F 6 "Connectors, Interconnects" H 4300 5975 60 0001 L CNN "Category"
F 7 "Coaxial Connectors (RF)" H 4300 6075 60 0001 L CNN "Family"
F 8 "https://linxtechnologies.com/wp/wp-content/uploads/consma001-smd-g.pdf" H 4300 6175 60 0001 L CNN "DK_Datasheet_Link"
F 9 "/product-detail/en/linx-technologies-inc/CONSMA001-SMD-G/CONSMA001-SMD-G-ND/4496569" H 4300 6275 60 0001 L CNN "DK_Detail_Page"
F 10 "CONN SMA RCPT STR 50 OHM SMD" H 4300 6375 60 0001 L CNN "Description"
F 11 "Linx Technologies Inc." H 4300 6475 60 0001 L CNN "Manufacturer"
F 12 "Active" H 4300 6575 60 0001 L CNN "Status"
F 13 "Linx Technologies" H 0 0 50 0001 C CNN "MFR"
F 14 "Digikey" H 0 0 50 0001 C CNN "SPR"
F 15 "CONSMA001-SMD-G-ND" H 0 0 50 0001 C CNN "SPN"
F 16 "-" H 0 0 50 0001 C CNN "SPURL"
	1    4100 5375
	1    0    0    -1  
$EndComp
$Comp
L GND #PWR029
U 1 1 5B239878
P 4100 5625
F 0 "#PWR029" H 4100 5375 50 0001 C CNN
F 1 "GND" H 4100 5475 50 0000 C CNN
F 2 "" H 4100 5625 50 0000 C CNN
F 3 "" H 4100 5625 50 0000 C CNN
	1    4100 5625
	1    0    0    -1  
$EndComp
$Comp
L L_Small L4
U 1 1 5B23AAAA
P 4500 6025
F 0 "L4" H 4530 6065 50 0000 L CNN
F 1 "33nH" V 4450 5875 50 0000 L CNN
F 2 "Capacitors_SMD:C_0402" H 4500 6025 50 0001 C CNN
F 3 "" H 4500 6025 50 0001 C CNN
F 4 "Bourns" H 0 0 50 0001 C CNN "MFR"
F 5 "CI100505-33NJ" H 0 0 50 0001 C CNN "MPN"
F 6 "Digikey" H 0 0 50 0001 C CNN "SPR"
F 7 "CI100505-33NJCT-ND" H 0 0 50 0001 C CNN "SPN"
F 8 "-" H 0 0 50 0001 C CNN "SPURL"
	1    4500 6025
	0    -1   -1   0   
$EndComp
$Comp
L C_Small C32
U 1 1 5B23ACDD
P 4950 5375
F 0 "C32" H 4960 5445 50 0000 L CNN
F 1 "100pF" V 4800 5250 50 0000 L CNN
F 2 "Capacitors_SMD:C_0805_HandSoldering" H 4950 5375 50 0001 C CNN
F 3 "" H 4950 5375 50 0001 C CNN
F 4 "Kemet" H 0 0 50 0001 C CNN "MFR"
F 5 "C0805C101K4RAC7800" H 0 0 50 0001 C CNN "MPN"
F 6 "Digikey" H 0 0 50 0001 C CNN "SPR"
F 7 "399-15003-1-ND" H 0 0 50 0001 C CNN "SPN"
F 8 "-" H 0 0 50 0001 C CNN "SPURL"
	1    4950 5375
	0    -1   -1   0   
$EndComp
$Comp
L C_Small C31
U 1 1 5B23B2CD
P 4150 6225
F 0 "C31" H 4160 6295 50 0000 L CNN
F 1 "100pF" H 4160 6145 50 0000 L CNN
F 2 "Capacitors_SMD:C_0805_HandSoldering" H 4150 6225 50 0001 C CNN
F 3 "" H 4150 6225 50 0001 C CNN
F 4 "Kemet" H 0 0 50 0001 C CNN "MFR"
F 5 "C0805C101K4RAC7800" H 0 0 50 0001 C CNN "MPN"
F 6 "Digikey" H 0 0 50 0001 C CNN "SPR"
F 7 "399-15003-1-ND" H 0 0 50 0001 C CNN "SPN"
F 8 "-" H 0 0 50 0001 C CNN "SPURL"
	1    4150 6225
	1    0    0    -1  
$EndComp
$Comp
L C_Small C30
U 1 1 5B23B453
P 3850 6225
F 0 "C30" H 3860 6295 50 0000 L CNN
F 1 ".1uF" H 3860 6145 50 0000 L CNN
F 2 "Capacitors_SMD:C_0402" H 3850 6225 50 0001 C CNN
F 3 "" H 3850 6225 50 0001 C CNN
F 4 "TDK" H 0 0 50 0001 C CNN "MFR"
F 5 "CGA2B1X7R1C104K050BC" H 0 0 50 0001 C CNN "MPN"
F 6 "Digikey" H 0 0 50 0001 C CNN "SPR"
F 7 "445-5613-1-ND" H 0 0 50 0001 C CNN "SPN"
F 8 "-" H 0 0 50 0001 C CNN "SPURL"
	1    3850 6225
	1    0    0    -1  
$EndComp
$Comp
L GND #PWR030
U 1 1 5B23B5B2
P 4000 6425
F 0 "#PWR030" H 4000 6175 50 0001 C CNN
F 1 "GND" H 4000 6275 50 0000 C CNN
F 2 "" H 4000 6425 50 0000 C CNN
F 3 "" H 4000 6425 50 0000 C CNN
	1    4000 6425
	1    0    0    -1  
$EndComp
$Comp
L C_Small C29
U 1 1 5B23CB0F
P 9775 2650
F 0 "C29" H 9785 2720 50 0000 L CNN
F 1 "NC" V 9925 2550 50 0000 L CNN
F 2 "Capacitors_SMD:C_0805_HandSoldering" H 9775 2650 50 0001 C CNN
F 3 "" H 9775 2650 50 0001 C CNN
F 4 "Vishay" H 0 0 50 0001 C CNN "MFR"
F 5 "CRCW06030000Z0EBC" H 0 0 50 0001 C CNN "MPN"
F 6 "Digikey" H 0 0 50 0001 C CNN "SPR"
F 7 "541-4013-1-ND" H 0 0 50 0001 C CNN "SPN"
F 8 "-" H 0 0 50 0001 C CNN "SPURL"
	1    9775 2650
	0    -1   -1   0   
$EndComp
$Comp
L SAWTEK-855969 U7
U 1 1 5B23DBF7
P 9825 3150
F 0 "U7" H 9575 3300 60 0000 C CNN
F 1 "SAWTEK-855969" H 9475 3350 60 0000 L BNN
F 2 "rf:Sawtek_855969" H 10025 3350 60 0001 L CNN
F 3 "https://www.diodes.com/assets/Datasheets/AP2114.pdf" H 10025 3450 60 0001 L CNN
F 4 "AP2114H-3.3TRG1DICT-ND" H 10025 3550 60 0001 L CNN "Digi-Key_PN"
F 5 "855969" H 10025 3650 60 0001 L CNN "MPN"
F 6 "Integrated Circuits (ICs)" H 10025 3750 60 0001 L CNN "Category"
F 7 "SAW" H 10025 3850 60 0001 L CNN "Family"
F 8 "https://www.mouser.com/datasheet/2/412/855969-846512.pdf" H 10025 3950 60 0001 L CNN "DK_Datasheet_Link"
F 9 "/product-detail/en/diodes-incorporated/AP2114H-3.3TRG1/AP2114H-3.3TRG1DICT-ND/4505142" H 10025 4050 60 0001 L CNN "DK_Detail_Page"
F 10 "IC REG LINEAR 3.3V 1A SOT223" H 10025 4150 60 0001 L CNN "Description"
F 11 "Diodes Incorporated" H 10025 4250 60 0001 L CNN "Manufacturer"
F 12 "Active" H 10025 4350 60 0001 L CNN "Status"
F 13 "Qorvo" H 0 0 50 0001 C CNN "MFR"
F 14 "Mouser" H 0 0 50 0001 C CNN "SPR"
F 15 "772-855969" H 0 0 50 0001 C CNN "SPN"
F 16 "-" H 0 0 50 0001 C CNN "SPURL"
	1    9825 3150
	1    0    0    -1  
$EndComp
$Comp
L GND #PWR031
U 1 1 5B23DBFD
P 9925 3750
F 0 "#PWR031" H 9925 3500 50 0001 C CNN
F 1 "GND" H 9925 3600 50 0000 C CNN
F 2 "" H 9925 3750 50 0000 C CNN
F 3 "" H 9925 3750 50 0000 C CNN
	1    9925 3750
	1    0    0    -1  
$EndComp
$Comp
L R R15
U 1 1 5B2975D0
P 2075 5500
F 0 "R15" V 2155 5500 50 0000 C CNN
F 1 "0" V 2000 5500 50 0000 C CNN
F 2 "Resistors_SMD:R_0805_HandSoldering" V 1930 5500 50 0001 C CNN
F 3 "" H 2000 5500 50 0001 C CNN
F 4 "Vishay" H 0 0 50 0001 C CNN "MFR"
F 5 "CRCW06030000Z0EBC" H 0 0 50 0001 C CNN "MPN"
F 6 "Digikey" H 0 0 50 0001 C CNN "SPR"
F 7 "541-4013-1-ND" H 0 0 50 0001 C CNN "SPN"
F 8 "-" H 0 0 50 0001 C CNN "SPURL"
	1    2075 5500
	0    1    1    0   
$EndComp
$Comp
L R R16
U 1 1 5B298102
P 2075 5750
F 0 "R16" V 2155 5750 50 0000 C CNN
F 1 "0" V 2000 5750 50 0000 C CNN
F 2 "Resistors_SMD:R_0805_HandSoldering" V 1930 5750 50 0001 C CNN
F 3 "" H 2000 5750 50 0001 C CNN
F 4 "Vishay" H 0 0 50 0001 C CNN "MFR"
F 5 "CRCW06030000Z0EBC" H 0 0 50 0001 C CNN "MPN"
F 6 "Digikey" H 0 0 50 0001 C CNN "SPR"
F 7 "541-4013-1-ND" H 0 0 50 0001 C CNN "SPN"
F 8 "-" H 0 0 50 0001 C CNN "SPURL"
	1    2075 5750
	0    1    1    0   
$EndComp
$Comp
L R R17
U 1 1 5B2981CA
P 2075 6000
F 0 "R17" V 2155 6000 50 0000 C CNN
F 1 "0" V 2000 6000 50 0000 C CNN
F 2 "Resistors_SMD:R_0805_HandSoldering" V 1930 6000 50 0001 C CNN
F 3 "" H 2000 6000 50 0001 C CNN
F 4 "Vishay" H 0 0 50 0001 C CNN "MFR"
F 5 "CRCW06030000Z0EBC" H 0 0 50 0001 C CNN "MPN"
F 6 "Digikey" H 0 0 50 0001 C CNN "SPR"
F 7 "541-4013-1-ND" H 0 0 50 0001 C CNN "SPN"
F 8 "-" H 0 0 50 0001 C CNN "SPURL"
	1    2075 6000
	0    1    1    0   
$EndComp
$Comp
L R R18
U 1 1 5B298297
P 2075 6250
F 0 "R18" V 2155 6250 50 0000 C CNN
F 1 "0" V 2000 6250 50 0000 C CNN
F 2 "Resistors_SMD:R_0805_HandSoldering" V 1930 6250 50 0001 C CNN
F 3 "" H 2000 6250 50 0001 C CNN
F 4 "Vishay" H 0 0 50 0001 C CNN "MFR"
F 5 "CRCW06030000Z0EBC" H 0 0 50 0001 C CNN "MPN"
F 6 "Digikey" H 0 0 50 0001 C CNN "SPR"
F 7 "541-4013-1-ND" H 0 0 50 0001 C CNN "SPN"
F 8 "-" H 0 0 50 0001 C CNN "SPURL"
	1    2075 6250
	0    1    1    0   
$EndComp
$Comp
L R R14
U 1 1 5B2A0332
P 2075 5250
F 0 "R14" V 2155 5250 50 0000 C CNN
F 1 "0" V 2000 5250 50 0000 C CNN
F 2 "Resistors_SMD:R_0805_HandSoldering" V 1930 5250 50 0001 C CNN
F 3 "" H 2000 5250 50 0001 C CNN
F 4 "Vishay" H 0 0 50 0001 C CNN "MFR"
F 5 "CRCW06030000Z0EBC" H 0 0 50 0001 C CNN "MPN"
F 6 "Digikey" H 0 0 50 0001 C CNN "SPR"
F 7 "541-4013-1-ND" H 0 0 50 0001 C CNN "SPN"
F 8 "-" H 0 0 50 0001 C CNN "SPURL"
	1    2075 5250
	0    1    1    0   
$EndComp
$Comp
L R R7
U 1 1 5B2A9337
P 2225 3800
F 0 "R7" V 2305 3800 50 0000 C CNN
F 1 "10K" V 2150 3800 50 0000 C CNN
F 2 "Resistors_SMD:R_0805_HandSoldering" V 2080 3800 50 0001 C CNN
F 3 "" H 2150 3800 50 0001 C CNN
F 4 "TE Connectivity" H 0 0 50 0001 C CNN "MFR"
F 5 "CRGH0805F10K" H 0 0 50 0001 C CNN "MPN"
F 6 "Digikey" H 0 0 50 0001 C CNN "SPR"
F 7 "A126417DKR-ND" H 0 0 50 0001 C CNN "SPN"
F 8 "-" H 0 0 50 0001 C CNN "SPURL"
	1    2225 3800
	-1   0    0    1   
$EndComp
$Comp
L R R10
U 1 1 5B2B0223
P 2075 7000
F 0 "R10" V 2155 7000 50 0000 C CNN
F 1 "0" V 2000 7000 50 0000 C CNN
F 2 "Resistors_SMD:R_0805_HandSoldering" V 1930 7000 50 0001 C CNN
F 3 "" H 2000 7000 50 0001 C CNN
F 4 "Vishay" H 0 0 50 0001 C CNN "MFR"
F 5 "CRCW06030000Z0EBC" H 0 0 50 0001 C CNN "MPN"
F 6 "Digikey" H 0 0 50 0001 C CNN "SPR"
F 7 "541-4013-1-ND" H 0 0 50 0001 C CNN "SPN"
F 8 "-" H 0 0 50 0001 C CNN "SPURL"
	1    2075 7000
	0    1    1    0   
$EndComp
$Comp
L R R9
U 1 1 5B2B2B5F
P 2075 6750
F 0 "R9" V 2155 6750 50 0000 C CNN
F 1 "0" V 2000 6750 50 0000 C CNN
F 2 "Resistors_SMD:R_0805_HandSoldering" V 1930 6750 50 0001 C CNN
F 3 "" H 2000 6750 50 0001 C CNN
F 4 "Vishay" H 0 0 50 0001 C CNN "MFR"
F 5 "CRCW06030000Z0EBC" H 0 0 50 0001 C CNN "MPN"
F 6 "Digikey" H 0 0 50 0001 C CNN "SPR"
F 7 "541-4013-1-ND" H 0 0 50 0001 C CNN "SPN"
F 8 "-" H 0 0 50 0001 C CNN "SPURL"
	1    2075 6750
	0    1    1    0   
$EndComp
$Comp
L R R8
U 1 1 5B2B2C1D
P 2075 6500
F 0 "R8" V 2155 6500 50 0000 C CNN
F 1 "0" V 2000 6500 50 0000 C CNN
F 2 "Resistors_SMD:R_0805_HandSoldering" V 1930 6500 50 0001 C CNN
F 3 "" H 2000 6500 50 0001 C CNN
F 4 "Vishay" H 0 0 50 0001 C CNN "MFR"
F 5 "CRCW06030000Z0EBC" H 0 0 50 0001 C CNN "MPN"
F 6 "Digikey" H 0 0 50 0001 C CNN "SPR"
F 7 "541-4013-1-ND" H 0 0 50 0001 C CNN "SPN"
F 8 "-" H 0 0 50 0001 C CNN "SPURL"
	1    2075 6500
	0    1    1    0   
$EndComp
$Comp
L C_Small C18
U 1 1 5B2B7313
P 7025 4950
F 0 "C18" H 7035 5020 50 0000 L CNN
F 1 "1uF" H 7035 4870 50 0000 L CNN
F 2 "Capacitors_SMD:C_0603_HandSoldering" H 7025 4950 50 0001 C CNN
F 3 "" H 7025 4950 50 0001 C CNN
F 4 "Samsung" H 0 0 50 0001 C CNN "MFR"
F 5 "CL10B105KP8NNNC" H 0 0 50 0001 C CNN "MPN"
F 6 "Digikey" H 0 0 50 0001 C CNN "SPR"
F 7 "1276-1946-1-ND" H 0 0 50 0001 C CNN "SPN"
F 8 "-" H 0 0 50 0001 C CNN "SPURL"
	1    7025 4950
	1    0    0    -1  
$EndComp
$Comp
L C_Small C23
U 1 1 5B2B743B
P 10475 4950
F 0 "C23" H 10485 5020 50 0000 L CNN
F 1 ".1uF" H 10485 4870 50 0000 L CNN
F 2 "Capacitors_SMD:C_0402" H 10475 4950 50 0001 C CNN
F 3 "" H 10475 4950 50 0001 C CNN
F 4 "TDK" H 0 0 50 0001 C CNN "MFR"
F 5 "CGA2B1X7R1C104K050BC" H 0 0 50 0001 C CNN "MPN"
F 6 "Digikey" H 0 0 50 0001 C CNN "SPR"
F 7 "445-5613-1-ND" H 0 0 50 0001 C CNN "SPN"
F 8 "-" H 0 0 50 0001 C CNN "SPURL"
	1    10475 4950
	1    0    0    -1  
$EndComp
$Comp
L GND #PWR032
U 1 1 5B2B7669
P 7025 5100
F 0 "#PWR032" H 7025 4850 50 0001 C CNN
F 1 "GND" H 7025 4950 50 0000 C CNN
F 2 "" H 7025 5100 50 0000 C CNN
F 3 "" H 7025 5100 50 0000 C CNN
	1    7025 5100
	1    0    0    -1  
$EndComp
$Comp
L GND #PWR033
U 1 1 5B2B7730
P 7375 4850
F 0 "#PWR033" H 7375 4600 50 0001 C CNN
F 1 "GND" H 7375 4700 50 0000 C CNN
F 2 "" H 7375 4850 50 0000 C CNN
F 3 "" H 7375 4850 50 0000 C CNN
	1    7375 4850
	1    0    0    -1  
$EndComp
$Comp
L GND #PWR034
U 1 1 5B2B78BD
P 10475 5050
F 0 "#PWR034" H 10475 4800 50 0001 C CNN
F 1 "GND" H 10475 4900 50 0000 C CNN
F 2 "" H 10475 5050 50 0000 C CNN
F 3 "" H 10475 5050 50 0000 C CNN
	1    10475 5050
	1    0    0    -1  
$EndComp
$Comp
L GND #PWR035
U 1 1 5B2B8EC4
P 1975 7550
F 0 "#PWR035" H 1975 7300 50 0001 C CNN
F 1 "GND" H 1975 7400 50 0000 C CNN
F 2 "" H 1975 7550 50 0000 C CNN
F 3 "" H 1975 7550 50 0000 C CNN
	1    1975 7550
	1    0    0    -1  
$EndComp
$Comp
L TCXO3 X1
U 1 1 5B436041
P 3575 3000
F 0 "X1" H 3575 3300 50 0000 C CNN
F 1 "13.368MHz TCXO" H 3575 3000 50 0000 C CNN
F 2 "rf:TCXO_Taitien" H 3575 3000 50 0001 C CNN
F 3 "" H 3575 3000 50 0001 C CNN
F 4 "Taitien" H 0 0 50 0001 C CNN "MFR"
F 5 "TXETCDSANF-16.368000" H 0 0 50 0001 C CNN "MPN"
F 6 "Digikey" H 0 0 50 0001 C CNN "SPR"
F 7 "1664-1271-1-ND" H 0 0 50 0001 C CNN "SPN"
F 8 "-" H 0 0 50 0001 C CNN "SPURL"
	1    3575 3000
	1    0    0    -1  
$EndComp
$Comp
L MAX8510EXK21 U4
U 1 1 5B5DE469
P 7375 4750
F 0 "U4" H 8392 5110 50 0000 L BNN
F 1 "MAX8510" H 8365 5009 50 0000 L BNN
F 2 "rf:21-0076E" H 7375 4750 50 0001 L BNN
F 3 "None" H 7375 4750 50 0001 L BNN
F 4 "Unavailable" H 7375 4750 50 0001 L BNN "Field4"
F 5 "None" H 7375 4750 50 0001 L BNN "Field5"
F 6 "MAX8510EXK21" H 7375 4750 50 0001 L BNN "Field6"
F 7 "LDO Regulator Pos 2.1V 0.12A 5-Pin SC-70" H 7375 4750 50 0001 L BNN "Field7"
F 8 "Maxim Integrated" H 7375 4750 50 0001 L BNN "Field8"
F 9 "Maxim" H 0 0 50 0001 C CNN "MFR"
F 10 "MAX8510EXK30+T" H 0 0 50 0001 C CNN "MPN"
F 11 "Digikey" H 0 0 50 0001 C CNN "SPR"
F 12 "MAX8510EXK30+TCT-ND" H 0 0 50 0001 C CNN "SPN"
F 13 "-" H 0 0 50 0001 C CNN "SPURL"
	1    7375 4750
	1    0    0    -1  
$EndComp
$Comp
L C_Small C17
U 1 1 5B5DF4D0
P 10125 4850
F 0 "C17" H 10135 4920 50 0000 L CNN
F 1 "10nF" V 10175 4600 50 0000 L CNN
F 2 "Capacitors_SMD:C_0402" H 10125 4850 50 0001 C CNN
F 3 "" H 10125 4850 50 0001 C CNN
F 4 "Murata" H 0 0 50 0001 C CNN "MFR"
F 5 "GRM155R71C103KA01D" H 0 0 50 0001 C CNN "MPN"
F 6 "Digikey" H 0 0 50 0001 C CNN "SPR"
F 7 "490-1313-1-ND" H 0 0 50 0001 C CNN "SPN"
F 8 "-" H 0 0 50 0001 C CNN "SPURL"
	1    10125 4850
	0    1    1    0   
$EndComp
$Comp
L C_Small C12
U 1 1 5B5E057D
P 7025 6000
F 0 "C12" H 7035 6070 50 0000 L CNN
F 1 "1uF" H 7035 5920 50 0000 L CNN
F 2 "Capacitors_SMD:C_0603_HandSoldering" H 7025 6000 50 0001 C CNN
F 3 "" H 7025 6000 50 0001 C CNN
F 4 "Samsung" H 0 0 50 0001 C CNN "MFR"
F 5 "CL10B105KP8NNNC" H 0 0 50 0001 C CNN "MPN"
F 6 "Digikey" H 0 0 50 0001 C CNN "SPR"
F 7 "1276-1946-1-ND" H 0 0 50 0001 C CNN "SPN"
F 8 "-" H 0 0 50 0001 C CNN "SPURL"
	1    7025 6000
	1    0    0    -1  
$EndComp
$Comp
L C_Small C36
U 1 1 5B5E0583
P 10475 6000
F 0 "C36" H 10485 6070 50 0000 L CNN
F 1 ".1uF" H 10485 5920 50 0000 L CNN
F 2 "Capacitors_SMD:C_0402" H 10475 6000 50 0001 C CNN
F 3 "" H 10475 6000 50 0001 C CNN
F 4 "TDK" H 0 0 50 0001 C CNN "MFR"
F 5 "CGA2B1X7R1C104K050BC" H 0 0 50 0001 C CNN "MPN"
F 6 "Digikey" H 0 0 50 0001 C CNN "SPR"
F 7 "445-5613-1-ND" H 0 0 50 0001 C CNN "SPN"
F 8 "-" H 0 0 50 0001 C CNN "SPURL"
	1    10475 6000
	1    0    0    -1  
$EndComp
$Comp
L GND #PWR036
U 1 1 5B5E0589
P 7025 6150
F 0 "#PWR036" H 7025 5900 50 0001 C CNN
F 1 "GND" H 7025 6000 50 0000 C CNN
F 2 "" H 7025 6150 50 0000 C CNN
F 3 "" H 7025 6150 50 0000 C CNN
	1    7025 6150
	1    0    0    -1  
$EndComp
$Comp
L GND #PWR037
U 1 1 5B5E058F
P 7375 5900
F 0 "#PWR037" H 7375 5650 50 0001 C CNN
F 1 "GND" H 7375 5750 50 0000 C CNN
F 2 "" H 7375 5900 50 0000 C CNN
F 3 "" H 7375 5900 50 0000 C CNN
	1    7375 5900
	1    0    0    -1  
$EndComp
$Comp
L GND #PWR038
U 1 1 5B5E0595
P 10475 6100
F 0 "#PWR038" H 10475 5850 50 0001 C CNN
F 1 "GND" H 10475 5950 50 0000 C CNN
F 2 "" H 10475 6100 50 0000 C CNN
F 3 "" H 10475 6100 50 0000 C CNN
	1    10475 6100
	1    0    0    -1  
$EndComp
$Comp
L MAX8510EXK21 U5
U 1 1 5B5E05A7
P 7375 5800
F 0 "U5" H 8392 6160 50 0000 L BNN
F 1 "MAX8510" H 8365 6059 50 0000 L BNN
F 2 "rf:21-0076E" H 7375 5800 50 0001 L BNN
F 3 "None" H 7375 5800 50 0001 L BNN
F 4 "Unavailable" H 7375 5800 50 0001 L BNN "Field4"
F 5 "None" H 7375 5800 50 0001 L BNN "Field5"
F 6 "MAX8510EXK21" H 7375 5800 50 0001 L BNN "Field6"
F 7 "LDO Regulator Pos 2.1V 0.12A 5-Pin SC-70" H 7375 5800 50 0001 L BNN "Field7"
F 8 "Maxim Integrated" H 7375 5800 50 0001 L BNN "Field8"
F 9 "Maxim" H 0 0 50 0001 C CNN "MFR"
F 10 "MAX8510EXK30+T" H 0 0 50 0001 C CNN "MPN"
F 11 "Digikey" H 0 0 50 0001 C CNN "SPR"
F 12 "MAX8510EXK30+TCT-ND" H 0 0 50 0001 C CNN "SPN"
F 13 "-" H 0 0 50 0001 C CNN "SPURL"
	1    7375 5800
	1    0    0    -1  
$EndComp
$Comp
L C_Small C24
U 1 1 5B5E05AD
P 10125 5900
F 0 "C24" H 10135 5970 50 0000 L CNN
F 1 "10nF" V 10175 5650 50 0000 L CNN
F 2 "Capacitors_SMD:C_0402" H 10125 5900 50 0001 C CNN
F 3 "" H 10125 5900 50 0001 C CNN
F 4 "Murata" H 0 0 50 0001 C CNN "MFR"
F 5 "GRM155R71C103KA01D" H 0 0 50 0001 C CNN "MPN"
F 6 "Digikey" H 0 0 50 0001 C CNN "SPR"
F 7 "490-1313-1-ND" H 0 0 50 0001 C CNN "SPN"
F 8 "-" H 0 0 50 0001 C CNN "SPURL"
	1    10125 5900
	0    1    1    0   
$EndComp
$Comp
L LT1719S6 U8
U 1 1 5B5E9B54
P 9375 1250
F 0 "U8" H 9544 968 50 0000 L BNN
F 1 "LT1719S6 -- Not Populated" H 9544 705 50 0000 L BNN
F 2 "rf:TSOT-23_S6" H 9375 1250 60 0001 C CNN
F 3 "Unavailable" H 9375 1250 50 0001 L BNN
F 4 "LT1719" H 9375 1250 50 0001 L BNN "Field4"
F 5 "None" H 9375 1250 50 0001 L BNN "Field5"
F 6 "Analog Devices / Linear Technology" H 9375 1250 50 0001 L BNN "Field6"
F 7 "None" H 9375 1250 50 0001 L BNN "Field7"
F 8 "Linear Tech" H 0 0 50 0001 C CNN "MFR"
F 9 "LT1719IS6#TRMPBF" H 0 0 50 0001 C CNN "MPN"
F 10 "Digikey" H 0 0 50 0001 C CNN "SPR"
F 11 "LT1719IS6#TRMPBFCT-ND" H 0 0 50 0001 C CNN "SPN"
F 12 "-" H 0 0 50 0001 C CNN "SPURL"
	1    9375 1250
	1    0    0    -1  
$EndComp
$Comp
L R R20
U 1 1 5B5E9ED0
P 8825 1550
F 0 "R20" V 8905 1550 50 0000 C CNN
F 1 "NC" V 8750 1550 50 0000 C CNN
F 2 "Resistors_SMD:R_0603_HandSoldering" V 8680 1550 50 0001 C CNN
F 3 "" H 8750 1550 50 0001 C CNN
F 4 "Vishay" H 0 0 50 0001 C CNN "MFR"
F 5 "CRCW06030000Z0EBC" H 0 0 50 0001 C CNN "MPN"
F 6 "Digikey" H 0 0 50 0001 C CNN "SPR"
F 7 "541-4013-1-ND" H 0 0 50 0001 C CNN "SPN"
F 8 "-" H 0 0 50 0001 C CNN "SPURL"
	1    8825 1550
	0    1    1    0   
$EndComp
$Comp
L C_Small C37
U 1 1 5B5EA13E
P 8975 2050
F 0 "C37" H 8985 2120 50 0000 L CNN
F 1 "100nF" H 8985 1970 50 0000 L CNN
F 2 "Capacitors_SMD:C_0402" H 8975 2050 50 0001 C CNN
F 3 "" H 8975 2050 50 0001 C CNN
F 4 "TDK" H 0 0 50 0001 C CNN "MFR"
F 5 "CGA2B1X7R1C104K050BC" H 0 0 50 0001 C CNN "MPN"
F 6 "Digikey" H 0 0 50 0001 C CNN "SPR"
F 7 "445-5613-1-ND" H 0 0 50 0001 C CNN "SPN"
F 8 "-" H 0 0 50 0001 C CNN "SPURL"
	1    8975 2050
	1    0    0    -1  
$EndComp
$Comp
L GND #PWR039
U 1 1 5B5EA299
P 8975 2150
F 0 "#PWR039" H 8975 1900 50 0001 C CNN
F 1 "GND" H 8975 2000 50 0000 C CNN
F 2 "" H 8975 2150 50 0000 C CNN
F 3 "" H 8975 2150 50 0000 C CNN
	1    8975 2150
	1    0    0    -1  
$EndComp
$Comp
L GND #PWR040
U 1 1 5B5EAC9C
P 9375 1975
F 0 "#PWR040" H 9375 1725 50 0001 C CNN
F 1 "GND" H 9375 1825 50 0000 C CNN
F 2 "" H 9375 1975 50 0000 C CNN
F 3 "" H 9375 1975 50 0000 C CNN
	1    9375 1975
	1    0    0    -1  
$EndComp
$Comp
L R R19
U 1 1 5B5EB863
P 8825 1275
F 0 "R19" V 8905 1275 50 0000 C CNN
F 1 "0" V 8750 1275 50 0000 C CNN
F 2 "Resistors_SMD:R_0603_HandSoldering" V 8680 1275 50 0001 C CNN
F 3 "" H 8750 1275 50 0001 C CNN
F 4 "Vishay" H 0 0 50 0001 C CNN "MFR"
F 5 "CRCW06030000Z0EBC" H 0 0 50 0001 C CNN "MPN"
F 6 "Digikey" H 0 0 50 0001 C CNN "SPR"
F 7 "541-4013-1-ND" H 0 0 50 0001 C CNN "SPN"
F 8 "-" H 0 0 50 0001 C CNN "SPURL"
	1    8825 1275
	0    1    1    0   
$EndComp
$Comp
L C_Small C38
U 1 1 5B5EE1F7
P 9550 950
F 0 "C38" H 9560 1020 50 0000 L CNN
F 1 ".1uF" H 9560 870 50 0000 L CNN
F 2 "Capacitors_SMD:C_0402" H 9550 950 50 0001 C CNN
F 3 "" H 9550 950 50 0001 C CNN
F 4 "TDK" H 0 0 50 0001 C CNN "MFR"
F 5 "CGA2B1X7R1C104K050BC" H 0 0 50 0001 C CNN "MPN"
F 6 "Digikey" H 0 0 50 0001 C CNN "SPR"
F 7 "445-5613-1-ND" H 0 0 50 0001 C CNN "SPN"
F 8 "-" H 0 0 50 0001 C CNN "SPURL"
	1    9550 950 
	1    0    0    -1  
$EndComp
$Comp
L GND #PWR041
U 1 1 5B5EE330
P 9550 1050
F 0 "#PWR041" H 9550 800 50 0001 C CNN
F 1 "GND" H 9550 900 50 0000 C CNN
F 2 "" H 9550 1050 50 0000 C CNN
F 3 "" H 9550 1050 50 0000 C CNN
	1    9550 1050
	1    0    0    -1  
$EndComp
Text Label 2625 2650 2    60   ~ 0
VCCA
Text Label 5075 900  2    60   ~ 0
VCCA
Text Label 5725 2650 2    60   ~ 0
MIXIN
Text Label 10825 3150 0    60   ~ 0
MIXIN
Text Label 4725 3200 2    60   ~ 0
VCCA
Text Label 5725 1950 2    60   ~ 0
SCLKL
Text Label 5725 2150 2    60   ~ 0
CS#
Text Label 5725 2450 2    60   ~ 0
SDATA
Text Label 5450 5375 0    60   ~ 0
LNA2
Text Label 3550 6025 2    60   ~ 0
ANTBIAS
Text Label 7675 1950 0    60   ~ 0
ANTBIAS
Text HLabel 6325 4750 0    60   Input ~ 0
+5V
Text HLabel 1550 7450 0    60   Input ~ 0
GND
Text HLabel 1550 6500 0    60   Input ~ 0
SCLK
Text HLabel 1550 6750 0    60   Input ~ 0
SDO
Text HLabel 1550 6250 0    60   Input ~ 0
D0
Text HLabel 1550 6000 0    60   Input ~ 0
D1
Text HLabel 1550 5750 0    60   Input ~ 0
D2
Text HLabel 1550 5500 0    60   Input ~ 0
D3
Text HLabel 1550 7000 0    60   Input ~ 0
SCS
Text HLabel 1550 5000 0    60   Input ~ 0
ANTFLAG
Text HLabel 1550 4750 0    60   Input ~ 0
LD
Text HLabel 1550 4000 0    60   Input ~ 0
SHDN#
Text HLabel 1550 4250 0    60   Input ~ 0
IDLE#
Text Label 5725 2050 2    60   ~ 0
SHDN#
Text Label 7675 1250 0    60   ~ 0
Q1
Text Label 7675 1350 0    60   ~ 0
Q0
Text Label 7675 1550 0    60   ~ 0
I0
Text Label 7675 1650 0    60   ~ 0
I1
Text Label 10025 1650 0    60   ~ 0
CLKOUT
Text Label 2325 5500 0    60   ~ 0
Q1
Text Label 2325 5750 0    60   ~ 0
Q0
Text Label 2325 6000 0    60   ~ 0
I0
Text Label 2325 6250 0    60   ~ 0
I1
Text HLabel 1550 5250 0    60   Input ~ 0
WR#
Text Label 2325 5250 0    60   ~ 0
CLKOUT
Text Label 2125 3600 2    60   ~ 0
VCCA
Text Label 2375 4000 0    60   ~ 0
SHDN#
Text Label 2375 6500 0    60   ~ 0
SCLKL
Text Label 2375 7000 0    60   ~ 0
CS#
Text Label 2375 6750 0    60   ~ 0
SDATA
Text Label 10725 4750 0    60   ~ 0
VCCA
Text Label 5725 2750 2    60   ~ 0
LNA2
Text HLabel 1550 7225 0    60   Input ~ 0
+5V
Text Label 10725 5800 0    60   ~ 0
VCCD
Text Label 5475 900  2    60   ~ 0
VCCD
Text HLabel 1550 4500 0    60   Input ~ 0
VCC3V3
Text Notes 3200 5400 0    60   ~ 0
(Active Antenna)
Text Label 7675 1450 0    60   ~ 0
LD
Text Label 2000 4750 0    60   ~ 0
LD
Text Label 7675 1850 0    60   ~ 0
ANTFLAG
Text Label 2000 5000 0    60   ~ 0
ANTFLAG
Text Label 2000 4500 0    60   ~ 0
VCC3V3
Text Label 9250 800  2    60   ~ 0
VCC3V3
Text Label 2000 4250 0    60   ~ 0
IDLE#
Text Label 5725 2550 2    60   ~ 0
IDLE#
Text Label 1975 7225 0    60   ~ 0
+5V
Text Label 6325 5800 2    60   ~ 0
+5V
Text Notes 875  3650 0    60   ~ 0
Off-Sheet Signals
Wire Wire Line
	4375 2850 4275 2850
Wire Wire Line
	4575 2850 5875 2850
Wire Wire Line
	2625 2650 2725 2650
Wire Wire Line
	2725 2650 2725 2900
Wire Wire Line
	2725 3100 2725 3250
Wire Wire Line
	2875 2850 2725 2850
Wire Wire Line
	2875 3150 2725 3150
Wire Wire Line
	3175 1250 5875 1250
Wire Wire Line
	3175 1250 3175 1800
Wire Wire Line
	3475 1350 5875 1350
Wire Wire Line
	3475 1350 3475 1800
Wire Wire Line
	3775 1450 5875 1450
Wire Wire Line
	3775 1450 3775 1800
Wire Wire Line
	4625 1650 5875 1650
Wire Wire Line
	4625 1650 4625 1800
Wire Wire Line
	4925 1750 5875 1750
Wire Wire Line
	4925 1750 4925 1800
Wire Wire Line
	4075 1550 5875 1550
Wire Wire Line
	4325 1550 4325 1800
Wire Wire Line
	4075 1550 4075 1800
Wire Wire Line
	4925 2000 4925 2150
Wire Wire Line
	3175 2000 3175 2100
Wire Wire Line
	3175 2100 4925 2100
Wire Wire Line
	4625 2000 4625 2100
Wire Wire Line
	4325 2000 4325 2100
Wire Wire Line
	4075 2000 4075 2100
Wire Wire Line
	3775 2000 3775 2100
Wire Wire Line
	3475 2000 3475 2100
Wire Wire Line
	8925 3150 9325 3150
Wire Wire Line
	7475 1750 8075 1750
Wire Wire Line
	7475 2150 7675 2150
Wire Wire Line
	7675 2150 7675 2850
Wire Wire Line
	7675 2700 7825 2700
Wire Wire Line
	8125 2700 8275 2700
Wire Wire Line
	8275 2700 8275 2850
Wire Wire Line
	8275 3050 8275 3100
Wire Wire Line
	7675 3050 7675 3100
Wire Wire Line
	5075 900  5225 900 
Wire Wire Line
	5225 900  5225 1750
Wire Wire Line
	4725 3200 4725 3300
Wire Wire Line
	4725 3600 4725 3700
Wire Wire Line
	4725 4000 4725 4050
Wire Wire Line
	4725 3650 4925 3650
Wire Wire Line
	4925 3650 4925 2950
Wire Wire Line
	4925 2950 5875 2950
Wire Wire Line
	5875 1950 5725 1950
Wire Wire Line
	5725 2150 5875 2150
Wire Wire Line
	5725 2350 5875 2350
Wire Wire Line
	5725 2450 5875 2450
Wire Wire Line
	5725 2650 5875 2650
Wire Wire Line
	5825 3450 5875 3450
Wire Wire Line
	4100 5625 4100 5575
Wire Wire Line
	4300 5375 4850 5375
Wire Wire Line
	4600 6025 4700 6025
Wire Wire Line
	4700 6025 4700 5375
Wire Wire Line
	3550 6025 4400 6025
Wire Wire Line
	4150 6025 4150 6125
Wire Wire Line
	3850 6025 3850 6125
Wire Wire Line
	4150 6375 4150 6325
Wire Wire Line
	3850 6375 4150 6375
Wire Wire Line
	4000 6375 4000 6425
Wire Wire Line
	3850 6325 3850 6375
Wire Wire Line
	10225 3150 10825 3150
Wire Wire Line
	9625 3650 9625 3700
Wire Wire Line
	9625 3700 9925 3700
Wire Wire Line
	9925 3650 9925 3750
Wire Wire Line
	9825 3650 9825 3700
Wire Wire Line
	9725 3650 9725 3700
Wire Wire Line
	9275 3150 9275 2650
Wire Wire Line
	9275 2650 9675 2650
Wire Wire Line
	9875 2650 10275 2650
Wire Wire Line
	10275 2650 10275 3150
Wire Wire Line
	7475 1950 7675 1950
Wire Wire Line
	5875 2550 5725 2550
Wire Wire Line
	7475 1850 7675 1850
Wire Wire Line
	5875 2050 5725 2050
Wire Wire Line
	7475 1250 7675 1250
Wire Wire Line
	7475 1350 7675 1350
Wire Wire Line
	7475 1550 7675 1550
Wire Wire Line
	7475 1650 7675 1650
Wire Wire Line
	8275 1750 9100 1750
Wire Wire Line
	1550 5500 1925 5500
Wire Wire Line
	2225 5500 2325 5500
Wire Wire Line
	1550 5750 1925 5750
Wire Wire Line
	2225 5750 2325 5750
Wire Wire Line
	1550 6000 1925 6000
Wire Wire Line
	2225 6000 2325 6000
Wire Wire Line
	1550 6250 1925 6250
Wire Wire Line
	2225 6250 2325 6250
Wire Wire Line
	1550 5250 1925 5250
Wire Wire Line
	2225 5250 2325 5250
Wire Wire Line
	1550 4000 2375 4000
Wire Wire Line
	2225 4000 2225 3950
Wire Wire Line
	2225 3650 2225 3600
Wire Wire Line
	2225 3600 2125 3600
Wire Wire Line
	1550 6500 1925 6500
Wire Wire Line
	2225 6500 2375 6500
Wire Wire Line
	1925 6750 1550 6750
Wire Wire Line
	2225 6750 2375 6750
Wire Wire Line
	1550 7000 1925 7000
Wire Wire Line
	2225 7000 2375 7000
Wire Wire Line
	7475 1450 7675 1450
Wire Wire Line
	7025 4850 7025 4750
Wire Wire Line
	6325 4750 7375 4750
Wire Wire Line
	7025 5050 7025 5100
Wire Wire Line
	7675 5150 7675 5200
Wire Wire Line
	1550 7450 1975 7450
Wire Wire Line
	1975 7450 1975 7550
Wire Wire Line
	5450 5375 5050 5375
Wire Wire Line
	5875 2750 5725 2750
Wire Wire Line
	9775 4750 10725 4750
Wire Wire Line
	9775 4850 10025 4850
Wire Wire Line
	10225 4850 10475 4850
Wire Wire Line
	10475 4850 10475 4750
Wire Wire Line
	7375 4750 7375 4250
Wire Wire Line
	7375 4250 9775 4250
Wire Wire Line
	9775 4250 9775 4950
Wire Wire Line
	7025 5900 7025 5800
Wire Wire Line
	6325 5800 7375 5800
Wire Wire Line
	7025 6100 7025 6150
Wire Wire Line
	7675 6200 7675 6250
Wire Wire Line
	9775 5800 10725 5800
Wire Wire Line
	9775 5900 10025 5900
Wire Wire Line
	10225 5900 10475 5900
Wire Wire Line
	10475 5900 10475 5800
Wire Wire Line
	7375 5800 7375 5300
Wire Wire Line
	7375 5300 9775 5300
Wire Wire Line
	9775 5300 9775 6000
Wire Wire Line
	5625 1450 5625 900 
Wire Wire Line
	5625 900  5475 900 
Wire Wire Line
	7475 2050 8575 2050
Wire Wire Line
	8575 2050 8575 3150
Wire Wire Line
	8575 3150 8725 3150
Wire Wire Line
	9100 1550 8975 1550
Wire Wire Line
	8675 1550 8600 1550
Wire Wire Line
	8600 1275 8600 1750
Wire Wire Line
	8975 1550 8975 1950
Wire Wire Line
	9375 1850 9375 1975
Wire Wire Line
	9275 1900 9375 1900
Wire Wire Line
	8600 1275 8675 1275
Wire Wire Line
	8975 1275 9675 1275
Wire Wire Line
	9675 1275 9675 1650
Wire Wire Line
	9675 1650 10025 1650
Wire Wire Line
	9250 800  9550 800 
Wire Wire Line
	9375 800  9375 1450
Wire Wire Line
	9550 800  9550 850 
Wire Wire Line
	1550 4500 2000 4500
Wire Wire Line
	1550 4750 2000 4750
Wire Wire Line
	1550 5000 2000 5000
Wire Wire Line
	1550 4250 2000 4250
Wire Wire Line
	1550 7225 1975 7225
Wire Notes Line
	925  3700 1675 3700
Wire Notes Line
	1675 3700 1675 7625
Connection ~ 2725 2850
Connection ~ 2725 3150
Connection ~ 4325 1550
Connection ~ 4925 2100
Connection ~ 4625 2100
Connection ~ 4325 2100
Connection ~ 4075 2100
Connection ~ 3775 2100
Connection ~ 3475 2100
Connection ~ 7675 2700
Connection ~ 5225 1250
Connection ~ 5225 1350
Connection ~ 5225 1550
Connection ~ 5225 1650
Connection ~ 5225 1750
Connection ~ 4725 3650
Connection ~ 4700 5375
Connection ~ 4150 6025
Connection ~ 3850 6025
Connection ~ 4000 6375
Connection ~ 9925 3700
Connection ~ 9825 3700
Connection ~ 9725 3700
Connection ~ 9275 3150
Connection ~ 10275 3150
Connection ~ 2225 4000
Connection ~ 7025 4750
Connection ~ 10475 4750
Connection ~ 7025 5800
Connection ~ 10475 5800
Connection ~ 5625 1450
Connection ~ 8600 1750
Connection ~ 9375 1900
Connection ~ 8600 1550
Connection ~ 9375 800 
NoConn ~ 5875 3150
NoConn ~ 5875 3250
NoConn ~ 4275 3150
NoConn ~ 5725 2350
$EndSCHEMATC
