EESchema Schematic File Version 2
LIBS:power
LIBS:device
LIBS:transistors
LIBS:conn
LIBS:linear
LIBS:regul
LIBS:74xx
LIBS:cmos4000
LIBS:adc-dac
LIBS:memory
LIBS:xilinx
LIBS:microcontrollers
LIBS:dsp
LIBS:microchip
LIBS:analog_switches
LIBS:motorola
LIBS:texas
LIBS:intel
LIBS:audio
LIBS:interface
LIBS:digital-audio
LIBS:philips
LIBS:display
LIBS:cypress
LIBS:siliconi
LIBS:opto
LIBS:atmel
LIBS:contrib
LIBS:valves
LIBS:dk_Addressable-Specialty
LIBS:dk_Alarms-Buzzers-and-Sirens
LIBS:dk_Automotive-Relays
LIBS:dk_Balun
LIBS:dk_Barrel-Audio-Connectors
LIBS:dk_Battery-Holders-Clips-Contacts
LIBS:dk_Clock-Timing-Clock-Generators-PLLs-Frequency-Synthesizers
LIBS:dk_Clock-Timing-Programmable-Timers-and-Oscillators
LIBS:dk_Clock-Timing-Real-Time-Clocks
LIBS:dk_Coaxial-Connectors-RF
LIBS:dk_Current-Transducers
LIBS:dk_Data-Acquisition-ADCs-DACs-Special-Purpose
LIBS:dk_Data-Acquisition-Analog-to-Digital-Converters-ADC
LIBS:dk_Data-Acquisition-Digital-Potentiometers
LIBS:dk_Data-Acquisition-Digital-to-Analog-Converters-DAC
LIBS:dk_Data-Acquisition-Touch-Screen-Controllers
LIBS:dk_DC-DC-Converters
LIBS:dk_Digital-Isolators
LIBS:dk_Diodes-Bridge-Rectifiers
LIBS:dk_Diodes-Rectifiers-Arrays
LIBS:dk_Diodes-Rectifiers-Single
LIBS:dk_Diodes-Zener-Single
LIBS:dk_Display-Modules-LCD-OLED-Graphic
LIBS:dk_Display-Modules-LED-Character-and-Numeric
LIBS:dk_D-Sub-Connectors
LIBS:dk_Embedded-Microcontrollers
LIBS:dk_Encoders
LIBS:dk_Evaluation-Boards-Sensors
LIBS:dk_Ferrite-Beads-and-Chips
LIBS:dk_Fixed-Inductors
LIBS:dk_Fuses
LIBS:dk_Gas-Sensors
LIBS:dk_Humidity-Moisture-Sensors
LIBS:dk_Image-Sensors-Camera
LIBS:dk_Infrared-UV-Visible-Emitters
LIBS:dk_Inrush-Current-Limiters-ICL
LIBS:dk_Interface-Analog-Switches-Multiplexers-Demultiplexers
LIBS:dk_Interface-Analog-Switches-Special-Purpose
LIBS:dk_Interface-Controllers
LIBS:dk_Interface-Drivers-Receivers-Transceivers
LIBS:dk_Interface-I-O-Expanders
LIBS:dk_Interface-Modules
LIBS:dk_Interface-Sensor-and-Detector-Interfaces
LIBS:dk_Interface-Sensor-Capacitive-Touch
LIBS:dk_Interface-Specialized
LIBS:dk_LED-Indication-Discrete
LIBS:dk_LEDs-Circuit-Board-Indicators-Arrays-Light-Bars-Bar-Graphs
LIBS:dk_Linear-Amplifiers-Audio
LIBS:dk_Linear-Amplifiers-Instrumentation-OP-Amps-Buffer-Amps
LIBS:dk_Linear-Comparators
LIBS:dk_Logic-Buffers-Drivers-Receivers-Transceivers
LIBS:dk_Logic-Flip-Flops
LIBS:dk_Logic-Gates-and-Inverters
LIBS:dk_Logic-Multivibrators
LIBS:dk_Logic-Shift-Registers
LIBS:dk_Logic-Signal-Switches-Multiplexers-Decoders
LIBS:dk_Logic-Translators-Level-Shifters
LIBS:dk_Magnetic-Sensors-Compass-Magnetic-Field-Modules
LIBS:dk_Magnetic-Sensors-Linear-Compass-ICs
LIBS:dk_Magnetic-Sensors-Switches-Solid-State
LIBS:dk_Memory
LIBS:dk_Memory-Connectors-PC-Card-Sockets
LIBS:dk_Microphones
LIBS:dk_Modular-Connectors-Jacks
LIBS:dk_Modular-Connectors-Jacks-With-Magnetics
LIBS:dk_Motion-Sensors-Accelerometers
LIBS:dk_Motion-Sensors-IMUs-Inertial-Measurement-Units
LIBS:dk_Motion-Sensors-Tilt-Switches
LIBS:dk_Navigation-Switches-Joystick
LIBS:dk_Optical-Sensors-Ambient-Light-IR-UV-Sensors
LIBS:dk_Optical-Sensors-Photo-Detectors-Remote-Receiver
LIBS:dk_Optical-Sensors-Photodiodes
LIBS:dk_Optical-Sensors-Phototransistors
LIBS:dk_Optical-Sensors-Reflective-Analog-Output
LIBS:dk_Optoisolators-Logic-Output
LIBS:dk_Optoisolators-Transistor-Photovoltaic-Output
LIBS:dk_Optoisolators-Triac-SCR-Output
LIBS:dk_Oscillators
LIBS:dk_PMIC-AC-DC-Converters-Offline-Switchers
LIBS:dk_PMIC-Battery-Chargers
LIBS:dk_PMIC-Battery-Management
LIBS:dk_PMIC-Current-Regulation-Management
LIBS:dk_PMIC-Full-Half-Bridge-Drivers
LIBS:dk_PMIC-Gate-Drivers
LIBS:dk_PMIC-LED-Drivers
LIBS:dk_PMIC-Motor-Drivers-Controllers
LIBS:dk_PMIC-OR-Controllers-Ideal-Diodes
LIBS:dk_PMIC-Power-Distribution-Switches-Load-Drivers
LIBS:dk_PMIC-Power-Management-Specialized
LIBS:dk_PMIC-RMS-to-DC-Converters
LIBS:dk_PMIC-Supervisors
LIBS:dk_PMIC-Thermal-Management
LIBS:dk_PMIC-V-F-and-F-V-Converters
LIBS:dk_PMIC-Voltage-Reference
LIBS:dk_PMIC-Voltage-Regulators-DC-DC-Switching-Controllers
LIBS:dk_PMIC-Voltage-Regulators-DC-DC-Switching-Regulators
LIBS:dk_PMIC-Voltage-Regulators-Linear
LIBS:dk_PMIC-Voltage-Regulators-Special-Purpose
LIBS:dk_Power-Relays-Over-2-Amps
LIBS:dk_Pressure-Sensors-Transducers
LIBS:dk_Programmable-Oscillators
LIBS:dk_Pushbutton-Switches
LIBS:dk_Rectangular-Connectors-Headers-Male-Pins
LIBS:dk_Reed-Relays
LIBS:dk_Resistor-Networks-Arrays
LIBS:dk_RF-Amplifiers
LIBS:dk_RF-Antennas
LIBS:dk_RF-Demodulators
LIBS:dk_RF-Detectors
LIBS:dk_RF-Evaluation-and-Development-Kits-Boards
LIBS:dk_RFID-RF-Access-Monitoring-ICs
LIBS:dk_RF-Receivers
LIBS:dk_RF-Switches
LIBS:dk_RF-Transceiver-ICs
LIBS:dk_RF-Transceiver-Modules
LIBS:dk_RF-Transmitters
LIBS:dk_Rotary-Potentiometers-Rheostats
LIBS:dk_Sensors-Transducers_Accessories
LIBS:dk_Signal-Relays-Up-to-2-Amps
LIBS:dk_Slide-Switches
LIBS:dk_Solid-State-Relays
LIBS:dk_Specialized-ICs
LIBS:dk_Specialized-Sensors
LIBS:dk_Surge-Suppression-ICs
LIBS:dk_Tactile-Switches
LIBS:dk_Temperature-Sensors-Analog-and-Digital-Output
LIBS:dk_Thermal-Cutoffs-Thermal-Fuses
LIBS:dk_Thyristors-DIACs-SIDACs
LIBS:dk_Thyristors-SCRs
LIBS:dk_Thyristors-TRIACs
LIBS:dk_Toggle-Switches
LIBS:dk_Transistors-Bipolar-BJT-Arrays
LIBS:dk_Transistors-Bipolar-BJT-RF
LIBS:dk_Transistors-Bipolar-BJT-Single
LIBS:dk_Transistors-Bipolar-BJT-Single-Pre-Biased
LIBS:dk_Transistors-FETs-MOSFETs-Arrays
LIBS:dk_Transistors-FETs-MOSFETs-RF
LIBS:dk_Transistors-FETs-MOSFETs-Single
LIBS:dk_Transistors-JFETs
LIBS:dk_Trimmer-Potentiometers
LIBS:dk_TVS-Diodes
LIBS:dk_TVS-Mixed-Technology
LIBS:dk_USB-DVI-HDMI-Connectors
LIBS:IRLML6402
LIBS:r_zigzag
LIBS:rfcom
LIBS:MAX2769CETI_
LIBS:sawtek-855969
LIBS:93LC46B-E_SN
LIBS:OscillatorTaitien
LIBS:maxim
LIBS:MAX8510EXK21
LIBS:LT1719
LIBS:LT1719S6B
LIBS:LT1719CS6TRPBF
LIBS:usb_gps-cache
EELAYER 25 0
EELAYER END
$Descr A4 11693 8268
encoding utf-8
Sheet 2 3
Title ""
Date ""
Rev ""
Comp ""
Comment1 ""
Comment2 ""
Comment3 ""
Comment4 ""
$EndDescr
$Comp
L 10118192-0001LF J1
U 1 1 5B1BCC4C
P 7400 2750
F 0 "J1" H 7450 3000 60 0000 C CNN
F 1 "Micro-USB Connector" H 7825 3100 60 0000 C CNN
F 2 "digikey-footprints:USB_Micro_B_Female_10118192" H 7600 2950 60 0001 L CNN
F 3 "https://cdn.amphenol-icc.com/media/wysiwyg/files/drawing/10118192.pdf" H 7600 3050 60 0001 L CNN
F 4 "609-4613-1-ND" H 7600 3150 60 0001 L CNN "Digi-Key_PN"
F 5 "10118192-0001LF" H 7600 3250 60 0001 L CNN "MPN"
F 6 "Connectors, Interconnects" H 7600 3350 60 0001 L CNN "Category"
F 7 "USB, DVI, HDMI Connectors" H 7600 3450 60 0001 L CNN "Family"
F 8 "https://cdn.amphenol-icc.com/media/wysiwyg/files/drawing/10118192.pdf" H 7600 3550 60 0001 L CNN "DK_Datasheet_Link"
F 9 "/product-detail/en/amphenol-fci/10118192-0001LF/609-4613-1-ND/2785378" H 7600 3650 60 0001 L CNN "DK_Detail_Page"
F 10 "CONN USB MICRO B RECPT SMT R/A" H 7600 3750 60 0001 L CNN "Description"
F 11 "Amphenol FCI" H 7600 3850 60 0001 L CNN "Manufacturer"
F 12 "Active" H 7600 3950 60 0001 L CNN "Status"
F 13 "Amphenol" H 0 0 50 0001 C CNN "MFR"
F 14 "Digikey" H 0 0 50 0001 C CNN "SPR"
F 15 "609-4613-1-ND" H 0 0 50 0001 C CNN "SPN"
F 16 "-" H 0 0 50 0001 C CNN "SPURL"
	1    7400 2750
	1    0    0    -1  
$EndComp
$Comp
L USBLC6-2SC6 D1
U 1 1 5B1BCC5C
P 9100 3050
F 0 "D1" H 8750 3600 60 0000 C CNN
F 1 "USBLC6-2SC6" H 9100 2500 60 0000 C CNN
F 2 "digikey-footprints:SOT23-6L" H 9300 3250 60 0001 L CNN
F 3 "http://www.st.com/content/ccc/resource/technical/document/datasheet/06/1d/48/9c/6c/20/4a/b2/CD00050750.pdf/files/CD00050750.pdf/jcr:content/translations/en.CD00050750.pdf" H 9300 3350 60 0001 L CNN
F 4 "497-5235-1-ND" H 9300 3450 60 0001 L CNN "Digi-Key_PN"
F 5 "USBLC6-2SC6" H 9300 3550 60 0001 L CNN "MPN"
F 6 "Circuit Protection" H 9300 3650 60 0001 L CNN "Category"
F 7 "TVS - Diodes" H 9300 3750 60 0001 L CNN "Family"
F 8 "http://www.st.com/content/ccc/resource/technical/document/datasheet/06/1d/48/9c/6c/20/4a/b2/CD00050750.pdf/files/CD00050750.pdf/jcr:content/translations/en.CD00050750.pdf" H 9300 3850 60 0001 L CNN "DK_Datasheet_Link"
F 9 "/product-detail/en/stmicroelectronics/USBLC6-2SC6/497-5235-1-ND/1121688" H 9300 3950 60 0001 L CNN "DK_Detail_Page"
F 10 "TVS DIODE 5.25V 17V SOT23-6" H 9300 4050 60 0001 L CNN "Description"
F 11 "STMicroelectronics" H 9300 4150 60 0001 L CNN "Manufacturer"
F 12 "Active" H 9300 4250 60 0001 L CNN "Status"
F 13 "STMicro" H 0 0 50 0001 C CNN "MFR"
F 14 "Digikey" H 0 0 50 0001 C CNN "SPR"
F 15 "497-5235-1-ND USB" H 0 0 50 0001 C CNN "SPN"
F 16 "-" H 0 0 50 0001 C CNN "SPURL"
	1    9100 3050
	1    0    0    -1  
$EndComp
$Comp
L FT2232HL-REEL U2
U 1 1 5B1BCE94
P 4750 5400
F 0 "U2" H 4150 7750 60 0000 C CNN
F 1 "FT2232HL-REEL" V 4850 5700 60 0000 C CNN
F 2 "digikey-footprints:LQFP-64_10x10mm" H 4950 5600 60 0001 L CNN
F 3 "http://www.ftdichip.com/Support/Documents/DataSheets/ICs/DS_FT2232H.pdf" H 4950 5700 60 0001 L CNN
F 4 "768-1024-1-ND" H 4950 5800 60 0001 L CNN "Digi-Key_PN"
F 5 "FT2232HL-REEL" H 4950 5900 60 0001 L CNN "MPN"
F 6 "Integrated Circuits (ICs)" H 4950 6000 60 0001 L CNN "Category"
F 7 "Interface - Controllers" H 4950 6100 60 0001 L CNN "Family"
F 8 "http://www.ftdichip.com/Support/Documents/DataSheets/ICs/DS_FT2232H.pdf" H 4950 6200 60 0001 L CNN "DK_Datasheet_Link"
F 9 "/product-detail/en/ftdi-future-technology-devices-international-ltd/FT2232HL-REEL/768-1024-1-ND/1986057" H 4950 6300 60 0001 L CNN "DK_Detail_Page"
F 10 "IC USB HS DUAL UART/FIFO 64-LQFP" H 4950 6400 60 0001 L CNN "Description"
F 11 "FTDI, Future Technology Devices International Ltd" H 4950 6500 60 0001 L CNN "Manufacturer"
F 12 "Active" H 4950 6600 60 0001 L CNN "Status"
F 13 "FTDI" H 0 0 50 0001 C CNN "MFR"
F 14 "Digikey" H 0 0 50 0001 C CNN "SPR"
F 15 "768-1024-1-ND" H 0 0 50 0001 C CNN "SPN"
F 16 "-" H 0 0 50 0001 C CNN "SPURL"
	1    4750 5400
	1    0    0    -1  
$EndComp
$Comp
L L4931ABD33-TR U3
U 1 1 5B1BCEA4
P 8650 1050
F 0 "U3" H 8400 1000 60 0000 C CNN
F 1 "L4931 LDO" H 8925 1025 60 0000 C CNN
F 2 "digikey-footprints:SOIC-8_W3.9mm" H 8850 1250 60 0001 L CNN
F 3 "http://www.st.com/content/ccc/resource/technical/document/datasheet/ff/95/2f/6a/75/70/42/49/CD00000971.pdf/files/CD00000971.pdf/jcr:content/translations/en.CD00000971.pdf" H 8850 1350 60 0001 L CNN
F 4 "497-1155-1-ND" H 8850 1450 60 0001 L CNN "Digi-Key_PN"
F 5 "L4931ABD33-TR" H 8850 1550 60 0001 L CNN "MPN"
F 6 "Integrated Circuits (ICs)" H 8850 1650 60 0001 L CNN "Category"
F 7 "PMIC - Voltage Regulators - Linear" H 8850 1750 60 0001 L CNN "Family"
F 8 "http://www.st.com/content/ccc/resource/technical/document/datasheet/ff/95/2f/6a/75/70/42/49/CD00000971.pdf/files/CD00000971.pdf/jcr:content/translations/en.CD00000971.pdf" H 8850 1850 60 0001 L CNN "DK_Datasheet_Link"
F 9 "/product-detail/en/stmicroelectronics/L4931ABD33-TR/497-1155-1-ND/586155" H 8850 1950 60 0001 L CNN "DK_Detail_Page"
F 10 "IC REG LINEAR 3.3V 250MA 8SO" H 8850 2050 60 0001 L CNN "Description"
F 11 "STMicroelectronics" H 8850 2150 60 0001 L CNN "Manufacturer"
F 12 "Active" H 8850 2250 60 0001 L CNN "Status"
F 13 "STMicro" H 0 0 50 0001 C CNN "MFR"
F 14 "Digikey" H 0 0 50 0001 C CNN "SPR"
F 15 "497-1155-1-ND" H 0 0 50 0001 C CNN "SPN"
F 16 "-" H 0 0 50 0001 C CNN "SPURL"
	1    8650 1050
	1    0    0    -1  
$EndComp
$Comp
L GND #PWR01
U 1 1 5B1BD43F
P 8100 3150
F 0 "#PWR01" H 8100 2900 50 0001 C CNN
F 1 "GND" H 8100 3000 50 0000 C CNN
F 2 "" H 8100 3150 50 0000 C CNN
F 3 "" H 8100 3150 50 0000 C CNN
	1    8100 3150
	1    0    0    -1  
$EndComp
$Comp
L C_Small C8
U 1 1 5B1BDC6D
P 9950 3150
F 0 "C8" H 9960 3220 50 0000 L CNN
F 1 ".1uF" H 9960 3070 50 0000 L CNN
F 2 "Capacitors_SMD:C_0402" H 9950 3150 50 0001 C CNN
F 3 "" H 9950 3150 50 0001 C CNN
F 4 "TDK" H 0 0 50 0001 C CNN "MFR"
F 5 "CGA2B1X7R1C104K050BC" H 0 0 50 0001 C CNN "MPN"
F 6 "Digikey" H 0 0 50 0001 C CNN "SPR"
F 7 "445-5613-1-ND" H 0 0 50 0001 C CNN "SPN"
F 8 "-" H 0 0 50 0001 C CNN "SPURL"
	1    9950 3150
	1    0    0    -1  
$EndComp
$Comp
L GND #PWR02
U 1 1 5B1BDCC5
P 9950 3250
F 0 "#PWR02" H 9950 3000 50 0001 C CNN
F 1 "GND" H 9950 3100 50 0000 C CNN
F 2 "" H 9950 3250 50 0000 C CNN
F 3 "" H 9950 3250 50 0000 C CNN
	1    9950 3250
	1    0    0    -1  
$EndComp
$Comp
L 93LCxxB U1
U 1 1 5B1BDDB3
P 2100 4100
F 0 "U1" H 1950 4450 50 0000 C CNN
F 1 "93LCxxB" H 1900 3850 50 0000 L CNN
F 2 "mem:SOIC127P600X175-8N" H 2000 4100 50 0001 C CNN
F 3 "" H 2100 4200 50 0001 C CNN
F 4 "MicroChip" H 0 0 50 0001 C CNN "MFR"
F 5 "93LC46B-I/SN" H 0 0 50 0001 C CNN "MPN"
F 6 "Digikey" H 0 0 50 0001 C CNN "SPR"
F 7 "93LC46B-I/SN-ND" H 0 0 50 0001 C CNN "SPN"
F 8 "-" H 0 0 50 0001 C CNN "SPURL"
	1    2100 4100
	1    0    0    -1  
$EndComp
$Comp
L GND #PWR03
U 1 1 5B1BF35B
P 1700 4300
F 0 "#PWR03" H 1700 4050 50 0001 C CNN
F 1 "GND" H 1700 4150 50 0000 C CNN
F 2 "" H 1700 4300 50 0000 C CNN
F 3 "" H 1700 4300 50 0000 C CNN
	1    1700 4300
	1    0    0    -1  
$EndComp
$Comp
L R R5
U 1 1 5B1BF3F3
P 2600 3300
F 0 "R5" V 2680 3300 50 0000 C CNN
F 1 "10K" V 2525 3300 50 0000 C CNN
F 2 "Resistors_SMD:R_0805_HandSoldering" V 2455 3300 50 0001 C CNN
F 3 "" H 2525 3300 50 0001 C CNN
F 4 "TE Connectivity" H 0 0 50 0001 C CNN "MFR"
F 5 "CRGH0805F10K" H 0 0 50 0001 C CNN "MPN"
F 6 "Digikey" H 0 0 50 0001 C CNN "SPR"
F 7 "A126417DKR-ND" H 0 0 50 0001 C CNN "SPN"
F 8 "-" H 0 0 50 0001 C CNN "SPURL"
	1    2600 3300
	1    0    0    -1  
$EndComp
$Comp
L R R6
U 1 1 5B1BF4B5
P 2800 4100
F 0 "R6" V 2880 4100 50 0000 C CNN
F 1 "2K" V 2725 4100 50 0000 C CNN
F 2 "Resistors_SMD:R_0603_HandSoldering" V 2655 4100 50 0001 C CNN
F 3 "" H 2725 4100 50 0001 C CNN
F 4 "Yageo" H 0 0 50 0001 C CNN "MFR"
F 5 "AC0603FR-072KL" H 0 0 50 0001 C CNN "MPN"
F 6 "Digikey" H 0 0 50 0001 C CNN "SPR"
F 7 "YAG3590CT-ND" H 0 0 50 0001 C CNN "SPN"
F 8 "-" H 0 0 50 0001 C CNN "SPURL"
	1    2800 4100
	0    1    1    0   
$EndComp
$Comp
L R R3
U 1 1 5B1BF56C
P 1450 3300
F 0 "R3" V 1530 3300 50 0000 C CNN
F 1 "10K" V 1375 3300 50 0000 C CNN
F 2 "Resistors_SMD:R_0805_HandSoldering" V 1305 3300 50 0001 C CNN
F 3 "" H 1375 3300 50 0001 C CNN
F 4 "TE Connectivity" H 0 0 50 0001 C CNN "MFR"
F 5 "CRGH0805F10K" H 0 0 50 0001 C CNN "MPN"
F 6 "Digikey" H 0 0 50 0001 C CNN "SPR"
F 7 "A126417DKR-ND" H 0 0 50 0001 C CNN "SPN"
F 8 "-" H 0 0 50 0001 C CNN "SPURL"
	1    1450 3300
	1    0    0    -1  
$EndComp
$Comp
L R R1
U 1 1 5B1BF604
P 1150 3300
F 0 "R1" V 1230 3300 50 0000 C CNN
F 1 "10K" V 1075 3300 50 0000 C CNN
F 2 "Resistors_SMD:R_0805_HandSoldering" V 1005 3300 50 0001 C CNN
F 3 "" H 1075 3300 50 0001 C CNN
F 4 "TE Connectivity" H 0 0 50 0001 C CNN "MFR"
F 5 "CRGH0805F10K" H 0 0 50 0001 C CNN "MPN"
F 6 "Digikey" H 0 0 50 0001 C CNN "SPR"
F 7 "A126417DKR-ND" H 0 0 50 0001 C CNN "SPN"
F 8 "-" H 0 0 50 0001 C CNN "SPURL"
	1    1150 3300
	1    0    0    -1  
$EndComp
$Comp
L C_Small C6
U 1 1 5B1C1DAE
P 7700 1600
F 0 "C6" H 7710 1670 50 0000 L CNN
F 1 ".1uF" H 7710 1520 50 0000 L CNN
F 2 "Capacitors_SMD:C_0402" H 7700 1600 50 0001 C CNN
F 3 "" H 7700 1600 50 0001 C CNN
F 4 "TDK" H 0 0 50 0001 C CNN "MFR"
F 5 "CGA2B1X7R1C104K050BC" H 0 0 50 0001 C CNN "MPN"
F 6 "Digikey" H 0 0 50 0001 C CNN "SPR"
F 7 "445-5613-1-ND" H 0 0 50 0001 C CNN "SPN"
F 8 "-" H 0 0 50 0001 C CNN "SPURL"
	1    7700 1600
	1    0    0    -1  
$EndComp
$Comp
L GND #PWR04
U 1 1 5B1C2321
P 9850 1800
F 0 "#PWR04" H 9850 1550 50 0001 C CNN
F 1 "GND" H 9850 1650 50 0000 C CNN
F 2 "" H 9850 1800 50 0000 C CNN
F 3 "" H 9850 1800 50 0000 C CNN
	1    9850 1800
	1    0    0    -1  
$EndComp
$Comp
L GND #PWR05
U 1 1 5B1C235C
P 8850 1900
F 0 "#PWR05" H 8850 1650 50 0001 C CNN
F 1 "GND" H 8850 1750 50 0000 C CNN
F 2 "" H 8850 1900 50 0000 C CNN
F 3 "" H 8850 1900 50 0000 C CNN
	1    8850 1900
	1    0    0    -1  
$EndComp
$Comp
L GND #PWR06
U 1 1 5B1C23A3
P 7700 1800
F 0 "#PWR06" H 7700 1550 50 0001 C CNN
F 1 "GND" H 7700 1650 50 0000 C CNN
F 2 "" H 7700 1800 50 0000 C CNN
F 3 "" H 7700 1800 50 0000 C CNN
	1    7700 1800
	1    0    0    -1  
$EndComp
$Comp
L BLM18PG471SN1D FB1
U 1 1 5B1C3474
P 7300 1200
F 0 "FB1" H 7150 1350 60 0000 C CNN
F 1 "BLM18PG471SN1D" H 7300 1050 60 0001 L CNN
F 2 "digikey-footprints:0603" H 7500 1400 60 0001 L CNN
F 3 "https://www.murata.com/en-us/products/productdata/8796738650142/ENFA0003.pdf" H 7500 1500 60 0001 L CNN
F 4 "490-5223-1-ND" H 7500 1600 60 0001 L CNN "Digi-Key_PN"
F 5 "BK0603HS330-T" H 7500 1700 60 0001 L CNN "MPN"
F 6 "Filters" H 7500 1800 60 0001 L CNN "Category"
F 7 "Ferrite Beads and Chips" H 7500 1900 60 0001 L CNN "Family"
F 8 "https://www.murata.com/en-us/products/productdata/8796738650142/ENFA0003.pdf" H 7500 2000 60 0001 L CNN "DK_Datasheet_Link"
F 9 "/product-detail/en/murata-electronics-north-america/BLM18PG471SN1D/490-5223-1-ND/1948399" H 7500 2100 60 0001 L CNN "DK_Detail_Page"
F 10 "FERRITE BEAD 470 OHM 0603 1LN" H 7500 2200 60 0001 L CNN "Description"
F 11 "Murata Electronics North America" H 7500 2300 60 0001 L CNN "Manufacturer"
F 12 "Active" H 7500 2400 60 0001 L CNN "Status"
F 13 "Taiyo Yuden" H 0 0 50 0001 C CNN "MFR"
F 14 "Digikey" H 0 0 50 0001 C CNN "SPR"
F 15 "587-1828-1-ND" H 0 0 50 0001 C CNN "SPN"
F 16 "-" H 0 0 50 0001 C CNN "SPURL"
	1    7300 1200
	0    1    1    0   
$EndComp
$Comp
L Crystal_GND24 Y1
U 1 1 5B1C4A48
P 4000 1750
F 0 "Y1" H 4125 1950 50 0000 L CNN
F 1 "12MHz Crystal" H 4125 1875 50 0000 L CNN
F 2 "oscillator:CTS_405_xtal" H 4000 1750 50 0001 C CNN
F 3 "" H 4000 1750 50 0001 C CNN
F 4 "CTS" H 0 0 50 0001 C CNN "MFR"
F 5 "405C35E12M00000" H 0 0 50 0001 C CNN "MPN"
F 6 "Digikey" H 0 0 50 0001 C CNN "SPR"
F 7 "CTX819DKR-ND" H 0 0 50 0001 C CNN "SPN"
F 8 "-" H 0 0 50 0001 C CNN "SPURL"
	1    4000 1750
	1    0    0    -1  
$EndComp
$Comp
L C_Small C5
U 1 1 5B1C4C39
P 4400 1900
F 0 "C5" H 4410 1970 50 0000 L CNN
F 1 "10pF" H 4410 1820 50 0000 L CNN
F 2 "Capacitors_SMD:C_0805_HandSoldering" H 4400 1900 50 0001 C CNN
F 3 "" H 4400 1900 50 0001 C CNN
F 4 "Kemet" H 0 0 50 0001 C CNN "MFR"
F 5 "C0805C100K5RAC7800" H 0 0 50 0001 C CNN "MPN"
F 6 "Digikey" H 0 0 50 0001 C CNN "SPR"
F 7 "399-17612-1-ND" H 0 0 50 0001 C CNN "SPN"
F 8 "-" H 0 0 50 0001 C CNN "SPURL"
	1    4400 1900
	1    0    0    -1  
$EndComp
$Comp
L C_Small C3
U 1 1 5B1C4E8F
P 3550 1900
F 0 "C3" H 3560 1970 50 0000 L CNN
F 1 "10pF" H 3560 1820 50 0000 L CNN
F 2 "Capacitors_SMD:C_0805_HandSoldering" H 3550 1900 50 0001 C CNN
F 3 "" H 3550 1900 50 0001 C CNN
F 4 "Kemet" H 0 0 50 0001 C CNN "MFR"
F 5 "C0805C100K5RAC7800" H 0 0 50 0001 C CNN "MPN"
F 6 "Digikey" H 0 0 50 0001 C CNN "SPR"
F 7 "399-17612-1-ND" H 0 0 50 0001 C CNN "SPN"
F 8 "-" H 0 0 50 0001 C CNN "SPURL"
	1    3550 1900
	1    0    0    -1  
$EndComp
$Comp
L GND #PWR07
U 1 1 5B1C4F07
P 4000 2100
F 0 "#PWR07" H 4000 1850 50 0001 C CNN
F 1 "GND" H 4000 1950 50 0000 C CNN
F 2 "" H 4000 2100 50 0000 C CNN
F 3 "" H 4000 2100 50 0000 C CNN
	1    4000 2100
	1    0    0    -1  
$EndComp
$Comp
L GND #PWR08
U 1 1 5B1C5028
P 4300 1350
F 0 "#PWR08" H 4300 1100 50 0001 C CNN
F 1 "GND" H 4300 1200 50 0000 C CNN
F 2 "" H 4300 1350 50 0000 C CNN
F 3 "" H 4300 1350 50 0000 C CNN
	1    4300 1350
	1    0    0    -1  
$EndComp
$Comp
L GND #PWR09
U 1 1 5B1E2A2E
P 5450 7550
F 0 "#PWR09" H 5450 7300 50 0001 C CNN
F 1 "GND" H 5450 7400 50 0000 C CNN
F 2 "" H 5450 7550 50 0000 C CNN
F 3 "" H 5450 7550 50 0000 C CNN
	1    5450 7550
	1    0    0    -1  
$EndComp
$Comp
L GND #PWR010
U 1 1 5B1E3987
P 3200 3600
F 0 "#PWR010" H 3200 3350 50 0001 C CNN
F 1 "GND" H 3200 3450 50 0000 C CNN
F 2 "" H 3200 3600 50 0000 C CNN
F 3 "" H 3200 3600 50 0000 C CNN
	1    3200 3600
	1    0    0    -1  
$EndComp
$Comp
L C_Small C4
U 1 1 5B1E3C76
P 3700 2900
F 0 "C4" H 3710 2970 50 0000 L CNN
F 1 "3.3uF" H 3710 2820 50 0000 L CNN
F 2 "Capacitors_SMD:C_0805_HandSoldering" H 3700 2900 50 0001 C CNN
F 3 "" H 3700 2900 50 0001 C CNN
F 4 "TDK" H 0 0 50 0001 C CNN "MFR"
F 5 "C2012X7R1C335K125AB" H 0 0 50 0001 C CNN "MPN"
F 6 "Digikey" H 0 0 50 0001 C CNN "SPR"
F 7 "445-7582-1-ND" H 0 0 50 0001 C CNN "SPN"
F 8 "-" H 0 0 50 0001 C CNN "SPURL"
	1    3700 2900
	1    0    0    -1  
$EndComp
$Comp
L GND #PWR011
U 1 1 5B1E3D04
P 3700 3000
F 0 "#PWR011" H 3700 2750 50 0001 C CNN
F 1 "GND" H 3700 2850 50 0000 C CNN
F 2 "" H 3700 3000 50 0000 C CNN
F 3 "" H 3700 3000 50 0000 C CNN
	1    3700 3000
	1    0    0    -1  
$EndComp
$Comp
L R R4
U 1 1 5B1E52EE
P 2150 2050
F 0 "R4" V 2230 2050 50 0000 C CNN
F 1 "10K" V 2075 2050 50 0000 C CNN
F 2 "Resistors_SMD:R_0805_HandSoldering" V 2005 2050 50 0001 C CNN
F 3 "" H 2075 2050 50 0001 C CNN
F 4 "TE Connectivity" H 0 0 50 0001 C CNN "MFR"
F 5 "CRGH0805F10K" H 0 0 50 0001 C CNN "MPN"
F 6 "Digikey" H 0 0 50 0001 C CNN "SPR"
F 7 "A126417DKR-ND" H 0 0 50 0001 C CNN "SPN"
F 8 "-" H 0 0 50 0001 C CNN "SPURL"
	1    2150 2050
	1    0    0    -1  
$EndComp
$Comp
L GND #PWR012
U 1 1 5B1E5B77
P 1300 1200
F 0 "#PWR012" H 1300 950 50 0001 C CNN
F 1 "GND" H 1300 1050 50 0000 C CNN
F 2 "" H 1300 1200 50 0000 C CNN
F 3 "" H 1300 1200 50 0000 C CNN
	1    1300 1200
	1    0    0    -1  
$EndComp
$Comp
L R R2
U 1 1 5B1E5BF4
P 1300 1000
F 0 "R2" V 1380 1000 50 0000 C CNN
F 1 "12.0K" V 1225 1000 50 0000 C CNN
F 2 "Resistors_SMD:R_0603_HandSoldering" V 1155 1000 50 0001 C CNN
F 3 "" H 1225 1000 50 0001 C CNN
F 4 "TE Connectivity" H 0 0 50 0001 C CNN "MFR"
F 5 "CPF0603B12KE1" H 0 0 50 0001 C CNN "MPN"
F 6 "Digikey" H 0 0 50 0001 C CNN "SPR"
F 7 "A103037CT-ND" H 0 0 50 0001 C CNN "SPN"
F 8 "-" H 0 0 50 0001 C CNN "SPURL"
	1    1300 1000
	1    0    0    -1  
$EndComp
$Comp
L C_Small C1
U 1 1 5B1E7FF3
P 1850 3250
F 0 "C1" H 1860 3320 50 0000 L CNN
F 1 "1uF" H 1860 3170 50 0000 L CNN
F 2 "Capacitors_SMD:C_0603_HandSoldering" H 1850 3250 50 0001 C CNN
F 3 "" H 1850 3250 50 0001 C CNN
F 4 "Samsung" H 0 0 50 0001 C CNN "MFR"
F 5 "CL10B105KP8NNNC" H 0 0 50 0001 C CNN "MPN"
F 6 "Digikey" H 0 0 50 0001 C CNN "SPR"
F 7 "1276-1946-1-ND" H 0 0 50 0001 C CNN "SPN"
F 8 "-" H 0 0 50 0001 C CNN "SPURL"
	1    1850 3250
	1    0    0    -1  
$EndComp
$Comp
L C_Small C2
U 1 1 5B1E80A3
P 2200 3250
F 0 "C2" H 2210 3320 50 0000 L CNN
F 1 ".1uF" H 2210 3170 50 0000 L CNN
F 2 "Capacitors_SMD:C_0402" H 2200 3250 50 0001 C CNN
F 3 "" H 2200 3250 50 0001 C CNN
F 4 "TDK" H 0 0 50 0001 C CNN "MFR"
F 5 "CGA2B1X7R1C104K050BC" H 0 0 50 0001 C CNN "MPN"
F 6 "Digikey" H 0 0 50 0001 C CNN "SPR"
F 7 "445-5613-1-ND" H 0 0 50 0001 C CNN "SPN"
F 8 "-" H 0 0 50 0001 C CNN "SPURL"
	1    2200 3250
	1    0    0    -1  
$EndComp
$Comp
L GND #PWR013
U 1 1 5B1E8115
P 1850 3400
F 0 "#PWR013" H 1850 3150 50 0001 C CNN
F 1 "GND" H 1850 3250 50 0000 C CNN
F 2 "" H 1850 3400 50 0000 C CNN
F 3 "" H 1850 3400 50 0000 C CNN
	1    1850 3400
	1    0    0    -1  
$EndComp
$Comp
L GND #PWR014
U 1 1 5B1E8178
P 2200 3400
F 0 "#PWR014" H 2200 3150 50 0001 C CNN
F 1 "GND" H 2200 3250 50 0000 C CNN
F 2 "" H 2200 3400 50 0000 C CNN
F 3 "" H 2200 3400 50 0000 C CNN
	1    2200 3400
	1    0    0    -1  
$EndComp
$Comp
L GND #PWR015
U 1 1 5B265DDF
P 1950 7400
F 0 "#PWR015" H 1950 7150 50 0001 C CNN
F 1 "GND" H 1950 7250 50 0000 C CNN
F 2 "" H 1950 7400 50 0000 C CNN
F 3 "" H 1950 7400 50 0000 C CNN
	1    1950 7400
	1    0    0    -1  
$EndComp
$Comp
L TEST TP1
U 1 1 5B2D3A96
P 8550 5350
F 0 "TP1" H 8550 5650 50 0000 C BNN
F 1 "TEST" H 8550 5600 50 0000 C CNN
F 2 "Measurement_Points:Test_Point" H 8550 5350 50 0001 C CNN
F 3 "" H 8550 5350 50 0000 C CNN
F 4 "-" H 0 0 50 0001 C CNN "MFR"
F 5 "-" H 0 0 50 0001 C CNN "MPN"
F 6 "-" H 0 0 50 0001 C CNN "SPR"
F 7 "-" H 0 0 50 0001 C CNN "SPN"
F 8 "-" H 0 0 50 0001 C CNN "SPURL"
	1    8550 5350
	1    0    0    -1  
$EndComp
$Comp
L TEST TP3
U 1 1 5B2D413A
P 9550 5350
F 0 "TP3" H 9550 5650 50 0000 C BNN
F 1 "TEST" H 9550 5600 50 0000 C CNN
F 2 "Measurement_Points:Measurement_Point_Round-TH_Small" H 9550 5350 50 0001 C CNN
F 3 "" H 9550 5350 50 0000 C CNN
F 4 "-" H 0 0 50 0001 C CNN "MFR"
F 5 "-" H 0 0 50 0001 C CNN "MPN"
F 6 "-" H 0 0 50 0001 C CNN "SPR"
F 7 "-" H 0 0 50 0001 C CNN "SPN"
F 8 "-" H 0 0 50 0001 C CNN "SPURL"
	1    9550 5350
	1    0    0    -1  
$EndComp
$Comp
L TEST TP5
U 1 1 5B2D41D2
P 10550 5350
F 0 "TP5" H 10550 5650 50 0000 C BNN
F 1 "TEST" H 10550 5600 50 0000 C CNN
F 2 "Measurement_Points:Measurement_Point_Round-TH_Small" H 10550 5350 50 0001 C CNN
F 3 "" H 10550 5350 50 0000 C CNN
F 4 "-" H 0 0 50 0001 C CNN "MFR"
F 5 "-" H 0 0 50 0001 C CNN "MPN"
F 6 "-" H 0 0 50 0001 C CNN "SPR"
F 7 "-" H 0 0 50 0001 C CNN "SPN"
F 8 "-" H 0 0 50 0001 C CNN "SPURL"
	1    10550 5350
	1    0    0    -1  
$EndComp
$Comp
L TEST TP6
U 1 1 5B2D4288
P 10550 6050
F 0 "TP6" H 10550 6350 50 0000 C BNN
F 1 "TEST" H 10550 6300 50 0000 C CNN
F 2 "Measurement_Points:Measurement_Point_Round-TH_Small" H 10550 6050 50 0001 C CNN
F 3 "" H 10550 6050 50 0000 C CNN
F 4 "-" H 0 0 50 0001 C CNN "MFR"
F 5 "-" H 0 0 50 0001 C CNN "MPN"
F 6 "-" H 0 0 50 0001 C CNN "SPR"
F 7 "-" H 0 0 50 0001 C CNN "SPN"
F 8 "-" H 0 0 50 0001 C CNN "SPURL"
	1    10550 6050
	1    0    0    -1  
$EndComp
$Comp
L TEST TP4
U 1 1 5B2D4359
P 9550 6050
F 0 "TP4" H 9550 6350 50 0000 C BNN
F 1 "TEST" H 9550 6300 50 0000 C CNN
F 2 "Measurement_Points:Measurement_Point_Round-TH_Small" H 9550 6050 50 0001 C CNN
F 3 "" H 9550 6050 50 0000 C CNN
F 4 "-" H 0 0 50 0001 C CNN "MFR"
F 5 "-" H 0 0 50 0001 C CNN "MPN"
F 6 "-" H 0 0 50 0001 C CNN "SPR"
F 7 "-" H 0 0 50 0001 C CNN "SPN"
F 8 "-" H 0 0 50 0001 C CNN "SPURL"
	1    9550 6050
	1    0    0    -1  
$EndComp
$Comp
L TEST TP2
U 1 1 5B2D441B
P 8550 6050
F 0 "TP2" H 8550 6350 50 0000 C BNN
F 1 "TEST" H 8550 6300 50 0000 C CNN
F 2 "Measurement_Points:Measurement_Point_Round-TH_Small" H 8550 6050 50 0001 C CNN
F 3 "" H 8550 6050 50 0000 C CNN
F 4 "-" H 0 0 50 0001 C CNN "MFR"
F 5 "-" H 0 0 50 0001 C CNN "MPN"
F 6 "-" H 0 0 50 0001 C CNN "SPR"
F 7 "-" H 0 0 50 0001 C CNN "SPN"
F 8 "-" H 0 0 50 0001 C CNN "SPURL"
	1    8550 6050
	1    0    0    -1  
$EndComp
$Comp
L PWR_FLAG #FLG016
U 1 1 5B317549
P 7300 800
F 0 "#FLG016" H 7300 895 50 0001 C CNN
F 1 "PWR_FLAG" H 7300 980 50 0000 C CNN
F 2 "" H 7300 800 50 0000 C CNN
F 3 "" H 7300 800 50 0000 C CNN
	1    7300 800 
	1    0    0    -1  
$EndComp
$Comp
L PWR_FLAG #FLG017
U 1 1 5B3186A4
P 850 1150
F 0 "#FLG017" H 850 1245 50 0001 C CNN
F 1 "PWR_FLAG" H 850 1330 50 0000 C CNN
F 2 "" H 850 1150 50 0000 C CNN
F 3 "" H 850 1150 50 0000 C CNN
	1    850  1150
	1    0    0    -1  
$EndComp
$Comp
L C_Small C33
U 1 1 5B46ED5F
P 3350 2900
F 0 "C33" H 3360 2970 50 0000 L CNN
F 1 "100 nF" H 3360 2820 50 0000 L CNN
F 2 "Capacitors_SMD:C_0402" H 3350 2900 50 0001 C CNN
F 3 "" H 3350 2900 50 0001 C CNN
F 4 "TDK" H 0 0 50 0001 C CNN "MFR"
F 5 "CGA2B1X7R1C104K050BC" H 0 0 50 0001 C CNN "MPN"
F 6 "Digikey" H 0 0 50 0001 C CNN "SPR"
F 7 "445-5613-1-ND" H 0 0 50 0001 C CNN "SPN"
F 8 "-" H 0 0 50 0001 C CNN "SPURL"
	1    3350 2900
	1    0    0    -1  
$EndComp
$Comp
L GND #PWR018
U 1 1 5B46F0D4
P 3350 3000
F 0 "#PWR018" H 3350 2750 50 0001 C CNN
F 1 "GND" H 3350 2850 50 0000 C CNN
F 2 "" H 3350 3000 50 0000 C CNN
F 3 "" H 3350 3000 50 0000 C CNN
	1    3350 3000
	1    0    0    -1  
$EndComp
$Comp
L C_Small C34
U 1 1 5B46F2DD
P 5450 2700
F 0 "C34" H 5460 2770 50 0000 L CNN
F 1 "3.3uF" H 5460 2620 50 0000 L CNN
F 2 "Capacitors_SMD:C_0805_HandSoldering" H 5450 2700 50 0001 C CNN
F 3 "" H 5450 2700 50 0001 C CNN
F 4 "TDK" H 0 0 50 0001 C CNN "MFR"
F 5 "C2012X7R1C335K125AB" H 0 0 50 0001 C CNN "MPN"
F 6 "Digikey" H 0 0 50 0001 C CNN "SPR"
F 7 "445-7582-1-ND" H 0 0 50 0001 C CNN "SPN"
F 8 "-" H 0 0 50 0001 C CNN "SPURL"
	1    5450 2700
	1    0    0    -1  
$EndComp
$Comp
L C_Small C35
U 1 1 5B46F3B3
P 5800 2700
F 0 "C35" H 5810 2770 50 0000 L CNN
F 1 "100 nF" H 5810 2620 50 0000 L CNN
F 2 "Capacitors_SMD:C_0402" H 5800 2700 50 0001 C CNN
F 3 "" H 5800 2700 50 0001 C CNN
F 4 "TDK" H 0 0 50 0001 C CNN "MFR"
F 5 "CGA2B1X7R1C104K050BC" H 0 0 50 0001 C CNN "MPN"
F 6 "Digikey" H 0 0 50 0001 C CNN "SPR"
F 7 "445-5613-1-ND" H 0 0 50 0001 C CNN "SPN"
F 8 "-" H 0 0 50 0001 C CNN "SPURL"
	1    5800 2700
	1    0    0    -1  
$EndComp
$Comp
L GND #PWR019
U 1 1 5B46F495
P 5450 2850
F 0 "#PWR019" H 5450 2600 50 0001 C CNN
F 1 "GND" H 5450 2700 50 0000 C CNN
F 2 "" H 5450 2850 50 0000 C CNN
F 3 "" H 5450 2850 50 0000 C CNN
	1    5450 2850
	1    0    0    -1  
$EndComp
$Comp
L GND #PWR020
U 1 1 5B46F5C0
P 5800 2850
F 0 "#PWR020" H 5800 2600 50 0001 C CNN
F 1 "GND" H 5800 2700 50 0000 C CNN
F 2 "" H 5800 2850 50 0000 C CNN
F 3 "" H 5800 2850 50 0000 C CNN
	1    5800 2850
	1    0    0    -1  
$EndComp
$Comp
L C_Small C9
U 1 1 5B5D53D2
P 7500 3350
F 0 "C9" H 7510 3420 50 0000 L CNN
F 1 "100 nF" H 7510 3270 50 0000 L CNN
F 2 "Capacitors_SMD:C_0402" H 7500 3350 50 0001 C CNN
F 3 "" H 7500 3350 50 0001 C CNN
F 4 "TDK" H 0 0 50 0001 C CNN "MFR"
F 5 "CGA2B1X7R1C104K050BC" H 0 0 50 0001 C CNN "MPN"
F 6 "Digikey" H 0 0 50 0001 C CNN "SPR"
F 7 "445-5613-1-ND" H 0 0 50 0001 C CNN "SPN"
F 8 "-" H 0 0 50 0001 C CNN "SPURL"
	1    7500 3350
	1    0    0    -1  
$EndComp
$Comp
L GND #PWR021
U 1 1 5B5D5586
P 7500 3450
F 0 "#PWR021" H 7500 3200 50 0001 C CNN
F 1 "GND" H 7500 3300 50 0000 C CNN
F 2 "" H 7500 3450 50 0000 C CNN
F 3 "" H 7500 3450 50 0000 C CNN
	1    7500 3450
	1    0    0    -1  
$EndComp
$Comp
L C_Small C10
U 1 1 5B5D5EEA
P 7950 1600
F 0 "C10" H 7960 1670 50 0000 L CNN
F 1 "10uF" H 7960 1520 50 0000 L CNN
F 2 "Capacitors_SMD:C_0603_HandSoldering" H 7950 1600 50 0001 C CNN
F 3 "" H 7950 1600 50 0001 C CNN
F 4 "Samsung" H 0 0 50 0001 C CNN "MFR"
F 5 "CL10B106MQ8NRNC" H 0 0 50 0001 C CNN "MPN"
F 6 "Digikey" H 0 0 50 0001 C CNN "SPR"
F 7 "1276-1948-1-ND" H 0 0 50 0001 C CNN "SPN"
F 8 "-" H 0 0 50 0001 C CNN "SPURL"
	1    7950 1600
	1    0    0    -1  
$EndComp
$Comp
L GND #PWR022
U 1 1 5B5D5EF0
P 7950 1800
F 0 "#PWR022" H 7950 1550 50 0001 C CNN
F 1 "GND" H 7950 1650 50 0000 C CNN
F 2 "" H 7950 1800 50 0000 C CNN
F 3 "" H 7950 1800 50 0000 C CNN
	1    7950 1800
	1    0    0    -1  
$EndComp
$Comp
L TEST_1P W5
U 1 1 5B5D6358
P 7300 4150
F 0 "W5" H 7300 4420 50 0000 C CNN
F 1 "SUSPEND" H 7300 4350 50 0000 C CNN
F 2 "Measurement_Points:Measurement_Point_Round-TH_Small" H 7500 4150 50 0001 C CNN
F 3 "" H 7500 4150 50 0000 C CNN
F 4 "-" H 0 0 50 0001 C CNN "MFR"
F 5 "-" H 0 0 50 0001 C CNN "MPN"
F 6 "-" H 0 0 50 0001 C CNN "SPR"
F 7 "-" H 0 0 50 0001 C CNN "SPN"
F 8 "-" H 0 0 50 0001 C CNN "SPURL"
	1    7300 4150
	1    0    0    -1  
$EndComp
$Comp
L TEST_1P W4
U 1 1 5B5D65B4
P 6950 4150
F 0 "W4" H 6950 4420 50 0000 C CNN
F 1 "PWREN" H 6950 4350 50 0000 C CNN
F 2 "Measurement_Points:Measurement_Point_Round-TH_Small" H 7150 4150 50 0001 C CNN
F 3 "" H 7150 4150 50 0000 C CNN
F 4 "-" H 0 0 50 0001 C CNN "MFR"
F 5 "-" H 0 0 50 0001 C CNN "MPN"
F 6 "-" H 0 0 50 0001 C CNN "SPR"
F 7 "-" H 0 0 50 0001 C CNN "SPN"
F 8 "-" H 0 0 50 0001 C CNN "SPURL"
	1    6950 4150
	1    0    0    -1  
$EndComp
$Comp
L TEST_1P W6
U 1 1 5B5D7E96
P 7700 4150
F 0 "W6" H 7700 4420 50 0000 C CNN
F 1 "EECLK" H 7700 4350 50 0000 C CNN
F 2 "Measurement_Points:Measurement_Point_Round-TH_Small" H 7900 4150 50 0001 C CNN
F 3 "" H 7900 4150 50 0000 C CNN
F 4 "-" H 0 0 50 0001 C CNN "MFR"
F 5 "-" H 0 0 50 0001 C CNN "MPN"
F 6 "-" H 0 0 50 0001 C CNN "SPR"
F 7 "-" H 0 0 50 0001 C CNN "SPN"
F 8 "-" H 0 0 50 0001 C CNN "SPURL"
	1    7700 4150
	1    0    0    -1  
$EndComp
$Comp
L TEST_1P W1
U 1 1 5B5D8295
P 900 3850
F 0 "W1" H 900 4120 50 0000 C CNN
F 1 "EECS" H 900 4050 50 0000 C CNN
F 2 "Measurement_Points:Measurement_Point_Round-TH_Small" H 1100 3850 50 0001 C CNN
F 3 "" H 1100 3850 50 0000 C CNN
F 4 "-" H 0 0 50 0001 C CNN "MFR"
F 5 "-" H 0 0 50 0001 C CNN "MPN"
F 6 "-" H 0 0 50 0001 C CNN "SPR"
F 7 "-" H 0 0 50 0001 C CNN "SPN"
F 8 "-" H 0 0 50 0001 C CNN "SPURL"
	1    900  3850
	1    0    0    -1  
$EndComp
$Comp
L TEST_1P W2
U 1 1 5B5D8D79
P 2600 4250
F 0 "W2" H 2600 4520 50 0000 C CNN
F 1 "D0" H 2600 4450 50 0000 C CNN
F 2 "Measurement_Points:Measurement_Point_Round-TH_Small" H 2800 4250 50 0001 C CNN
F 3 "" H 2800 4250 50 0000 C CNN
F 4 "-" H 0 0 50 0001 C CNN "MFR"
F 5 "-" H 0 0 50 0001 C CNN "MPN"
F 6 "-" H 0 0 50 0001 C CNN "SPR"
F 7 "-" H 0 0 50 0001 C CNN "SPN"
F 8 "-" H 0 0 50 0001 C CNN "SPURL"
	1    2600 4250
	1    0    0    1   
$EndComp
$Comp
L TEST_1P W3
U 1 1 5B5D8F1F
P 3050 4250
F 0 "W3" H 3050 4520 50 0000 C CNN
F 1 "D1" H 3050 4450 50 0000 C CNN
F 2 "Measurement_Points:Measurement_Point_Round-TH_Small" H 3250 4250 50 0001 C CNN
F 3 "" H 3250 4250 50 0000 C CNN
F 4 "-" H 0 0 50 0001 C CNN "MFR"
F 5 "-" H 0 0 50 0001 C CNN "MPN"
F 6 "-" H 0 0 50 0001 C CNN "SPR"
F 7 "-" H 0 0 50 0001 C CNN "SPN"
F 8 "-" H 0 0 50 0001 C CNN "SPURL"
	1    3050 4250
	1    0    0    1   
$EndComp
$Comp
L C_Small C7
U 1 1 5B5B2330
P 9850 1600
F 0 "C7" H 9860 1670 50 0000 L CNN
F 1 "2.2uF" H 9860 1520 50 0000 L CNN
F 2 "Capacitors_SMD:C_0805_HandSoldering" H 9850 1600 50 0001 C CNN
F 3 "" H 9850 1600 50 0001 C CNN
F 4 "TDK" H 0 0 50 0001 C CNN "MFR"
F 5 "C2012X7R1C225K125AB" H 0 0 50 0001 C CNN "MPN"
F 6 "Digikey" H 0 0 50 0001 C CNN "SPR"
F 7 "445-1420-1-ND" H 0 0 50 0001 C CNN "SPN"
F 8 "-" H 0 0 50 0001 C CNN "SPURL"
	1    9850 1600
	1    0    0    -1  
$EndComp
Text Label 10450 900  0    60   ~ 0
+5V
Text Label 10500 2750 0    60   ~ 0
Data-
Text Label 10500 3600 0    60   ~ 0
Data+
Text Label 750  4000 2    60   ~ 0
EECS
Text Label 1000 4200 2    60   ~ 0
EECLK
Text Label 3550 3800 2    60   ~ 0
EECS
Text Label 7900 4150 0    60   ~ 0
EECLK
Text Label 1000 3050 2    60   ~ 0
VCC3V3
Text Label 10500 1350 0    60   ~ 0
VCC3V3
Text Label 4750 1750 0    60   ~ 0
OSCO
Text Label 3550 3500 2    60   ~ 0
Data+
Text Label 3550 3400 2    60   ~ 0
Data-
Text Label 4400 2550 2    60   ~ 0
VCC3V3
Text Label 4400 2700 2    60   ~ 0
VREGOUT
Text Label 6050 3500 0    60   ~ 0
VREGOUT
Text Label 6050 3600 0    60   ~ 0
OSCO
Text Label 3550 3700 2    60   ~ 0
RESET
Text Label 3550 3300 2    60   ~ 0
REF
Text Label 1300 800  0    60   ~ 0
REF
Text Label 2500 2300 0    60   ~ 0
RESET
Text Label 2150 1750 2    60   ~ 0
VCC3V3
Text Label 1650 2300 2    60   ~ 0
RESETIN#
Text HLabel 1425 5600 0    60   Input ~ 0
D0
Text HLabel 1425 5700 0    60   Input ~ 0
D1
Text HLabel 1425 5800 0    60   Input ~ 0
D2
Text HLabel 1425 5900 0    60   Input ~ 0
D3
Text HLabel 1425 6500 0    60   Input ~ 0
TXE#
Text HLabel 1425 6700 0    60   Input ~ 0
WR#
Text HLabel 1425 4650 0    60   Input ~ 0
SCLK
Text HLabel 1425 4750 0    60   Input ~ 0
SDO
Text HLabel 1425 4950 0    60   Input ~ 0
SCS
Text HLabel 1425 7200 0    60   Input ~ 0
+5V
Text Label 1950 7200 0    60   ~ 0
+5V
Text HLabel 1425 7350 0    60   Input ~ 0
GND
Text HLabel 1425 4850 0    60   Input ~ 0
SDI
Text HLabel 1425 5150 0    60   Input ~ 0
GPIO0
Text HLabel 1425 5250 0    60   Input ~ 0
GPIO1
Text HLabel 1425 5350 0    60   Input ~ 0
GPIO2
Text HLabel 1425 5450 0    60   Input ~ 0
GPIO3
Text Label 8450 6150 2    60   ~ 0
RESETIN#
Text Label 10450 6150 2    60   ~ 0
OSCO
Text Label 9450 6150 2    60   ~ 0
VBUS
Text Label 9450 5450 2    60   ~ 0
+5V
Text Label 10450 5450 2    60   ~ 0
VCC3V3
Text Label 8450 5450 2    60   ~ 0
GND
Text Label 10500 2200 0    60   ~ 0
VBUS
Text HLabel 1425 6975 0    60   Output ~ 0
VCC3V3
Text Label 1825 6975 0    60   ~ 0
VCC3V3
Text Notes 625  4500 0    60   ~ 0
Off-Sheet Signals\n
Wire Wire Line
	7600 3350 7600 3250
Wire Wire Line
	7850 3050 8500 3050
Wire Wire Line
	8100 3050 8100 3150
Wire Wire Line
	7850 3350 7850 3050
Wire Wire Line
	9950 3050 9700 3050
Wire Wire Line
	10500 2750 9700 2750
Wire Wire Line
	9700 3350 9700 3600
Wire Wire Line
	9700 3600 10500 3600
Wire Wire Line
	1800 4200 1700 4200
Wire Wire Line
	1700 4200 1700 4300
Wire Wire Line
	750  4000 1800 4000
Wire Wire Line
	1450 4200 1000 4200
Wire Wire Line
	1450 3450 1450 4200
Wire Wire Line
	1450 4100 1800 4100
Wire Wire Line
	1150 3450 1150 4000
Wire Wire Line
	3550 3800 3850 3800
Wire Wire Line
	5650 3900 6500 3900
Wire Wire Line
	2400 4000 2600 4000
Wire Wire Line
	2600 3450 2600 4250
Wire Wire Line
	2950 4100 3050 4100
Wire Wire Line
	3050 3900 3050 4250
Wire Wire Line
	2400 3900 3850 3900
Wire Wire Line
	1000 3050 2600 3050
Wire Wire Line
	1150 3050 1150 3150
Wire Wire Line
	1450 3050 1450 3150
Wire Wire Line
	2600 3050 2600 3150
Wire Wire Line
	1700 3900 1800 3900
Wire Wire Line
	1700 3050 1700 3900
Wire Wire Line
	8650 900  8650 950 
Wire Wire Line
	7700 1700 7700 1800
Wire Wire Line
	7700 1500 7700 900 
Wire Wire Line
	8150 900  8150 1350
Wire Wire Line
	8550 1850 8850 1850
Wire Wire Line
	8850 1850 8850 1900
Wire Wire Line
	7300 900  10450 900 
Wire Wire Line
	7300 1400 7300 2350
Wire Wire Line
	7300 800  7300 1000
Wire Wire Line
	9950 3050 9950 2200
Wire Wire Line
	7300 2200 10500 2200
Wire Wire Line
	3550 1750 3550 1800
Wire Wire Line
	4150 1750 4750 1750
Wire Wire Line
	4400 1750 4400 1800
Wire Wire Line
	4000 1550 4000 1300
Wire Wire Line
	4000 1300 4300 1300
Wire Wire Line
	4300 1300 4300 1350
Wire Wire Line
	4000 1950 4000 2100
Wire Wire Line
	3550 2000 3550 2050
Wire Wire Line
	3550 2050 4400 2050
Wire Wire Line
	4400 2050 4400 2000
Wire Wire Line
	3850 3400 3550 3400
Wire Wire Line
	3850 3500 3550 3500
Wire Wire Line
	4400 2550 5800 2550
Wire Wire Line
	5250 2550 5250 2900
Wire Wire Line
	5150 2900 5150 2550
Wire Wire Line
	5050 2900 5050 2550
Wire Wire Line
	4950 2900 4950 2550
Wire Wire Line
	4850 2900 4850 2550
Wire Wire Line
	4750 2900 4750 2550
Wire Wire Line
	4650 2900 4650 2550
Wire Wire Line
	4400 2700 4550 2700
Wire Wire Line
	4550 2700 4550 2900
Wire Wire Line
	4350 2800 4350 2900
Wire Wire Line
	3350 2800 4550 2800
Wire Wire Line
	4450 2900 4450 2800
Wire Wire Line
	5650 3500 6050 3500
Wire Wire Line
	5650 3600 6050 3600
Wire Wire Line
	4550 7400 4550 7500
Wire Wire Line
	4550 7500 5450 7500
Wire Wire Line
	5450 7500 5450 7550
Wire Wire Line
	5350 7400 5350 7500
Wire Wire Line
	5250 7400 5250 7500
Wire Wire Line
	5150 7400 5150 7500
Wire Wire Line
	5050 7400 5050 7500
Wire Wire Line
	4950 7400 4950 7500
Wire Wire Line
	4850 7400 4850 7500
Wire Wire Line
	4750 7400 4750 7500
Wire Wire Line
	4650 7400 4650 7500
Wire Wire Line
	3850 3600 3200 3600
Wire Wire Line
	3850 3700 3550 3700
Wire Wire Line
	3850 3300 3550 3300
Wire Wire Line
	1300 800  1300 850 
Wire Wire Line
	1300 1150 1300 1200
Wire Wire Line
	1650 2300 2500 2300
Wire Wire Line
	2150 2200 2150 2300
Wire Wire Line
	2150 1900 2150 1750
Wire Wire Line
	3850 3200 3150 3200
Wire Wire Line
	3150 3200 3150 1750
Wire Wire Line
	3150 1750 3850 1750
Wire Wire Line
	2200 3150 2200 3050
Wire Wire Line
	1850 3150 1850 3050
Wire Wire Line
	1850 3350 1850 3400
Wire Wire Line
	2200 3350 2200 3400
Wire Wire Line
	1425 5600 3850 5600
Wire Wire Line
	1425 5700 3850 5700
Wire Wire Line
	1425 5800 3850 5800
Wire Wire Line
	1425 5900 3850 5900
Wire Wire Line
	1425 6500 3850 6500
Wire Wire Line
	3850 6700 1425 6700
Wire Wire Line
	1425 4650 3200 4650
Wire Wire Line
	3200 4650 3200 4000
Wire Wire Line
	3200 4000 3850 4000
Wire Wire Line
	1425 4950 3350 4950
Wire Wire Line
	3350 4950 3350 4300
Wire Wire Line
	3350 4300 3850 4300
Wire Wire Line
	3850 4100 3250 4100
Wire Wire Line
	3250 4100 3250 4750
Wire Wire Line
	3250 4750 1425 4750
Wire Wire Line
	1425 7200 1950 7200
Wire Wire Line
	1425 7350 1950 7350
Wire Wire Line
	1950 7350 1950 7400
Wire Wire Line
	3850 4800 3450 4800
Wire Wire Line
	3450 4800 3450 5150
Wire Wire Line
	3450 5150 1425 5150
Wire Wire Line
	3850 4900 3500 4900
Wire Wire Line
	3500 4900 3500 5250
Wire Wire Line
	3500 5250 1425 5250
Wire Wire Line
	3850 5000 3550 5000
Wire Wire Line
	3550 5000 3550 5350
Wire Wire Line
	3550 5350 1425 5350
Wire Wire Line
	3850 5100 3600 5100
Wire Wire Line
	3600 5100 3600 5450
Wire Wire Line
	3600 5450 1425 5450
Wire Wire Line
	2600 4100 2650 4100
Wire Wire Line
	1425 4850 3300 4850
Wire Wire Line
	3300 4850 3300 4200
Wire Wire Line
	3300 4200 3850 4200
Wire Wire Line
	8450 5450 8550 5450
Wire Wire Line
	8550 5450 8550 5350
Wire Wire Line
	9450 5450 9550 5450
Wire Wire Line
	9550 5450 9550 5350
Wire Wire Line
	10550 5350 10550 5450
Wire Wire Line
	10550 5450 10450 5450
Wire Wire Line
	8550 6050 8550 6150
Wire Wire Line
	8550 6150 8450 6150
Wire Wire Line
	9450 6150 9550 6150
Wire Wire Line
	9550 6150 9550 6050
Wire Wire Line
	10450 6150 10550 6150
Wire Wire Line
	10550 6150 10550 6050
Wire Wire Line
	7850 3350 7600 3350
Wire Wire Line
	850  1150 850  1200
Wire Wire Line
	850  1200 1300 1200
Wire Wire Line
	5450 2550 5450 2600
Wire Wire Line
	5800 2550 5800 2600
Wire Wire Line
	5450 2800 5450 2850
Wire Wire Line
	5800 2800 5800 2850
Wire Wire Line
	7950 1700 7950 1800
Wire Wire Line
	5650 3700 6700 3700
Wire Wire Line
	6700 3700 6700 4200
Wire Wire Line
	6700 4200 6950 4200
Wire Wire Line
	6950 4200 6950 4150
Wire Wire Line
	5650 3800 6600 3800
Wire Wire Line
	6600 3800 6600 4300
Wire Wire Line
	6600 4300 7300 4300
Wire Wire Line
	7300 4300 7300 4150
Wire Wire Line
	6500 3900 6500 4400
Wire Wire Line
	6500 4400 7700 4400
Wire Wire Line
	7700 4400 7700 4150
Wire Wire Line
	7700 4150 7900 4150
Wire Wire Line
	900  3850 900  4000
Wire Wire Line
	7950 1500 7950 900 
Wire Wire Line
	9150 1350 10500 1350
Wire Wire Line
	8400 2750 8400 3700
Wire Wire Line
	8400 3700 6900 3700
Wire Wire Line
	6900 3700 6900 2850
Wire Wire Line
	6900 2850 7000 2850
Wire Wire Line
	9850 1350 9850 1500
Wire Wire Line
	9850 1700 9850 1800
Wire Wire Line
	8400 2750 8500 2750
Wire Wire Line
	7900 2750 8300 2750
Wire Wire Line
	8300 2750 8300 3350
Wire Wire Line
	8300 3350 8500 3350
Wire Wire Line
	1425 6975 1825 6975
Wire Notes Line
	900  4525 1475 4525
Wire Notes Line
	1475 4525 1475 7500
Wire Notes Line
	1475 7500 1500 7500
Connection ~ 8100 3050
Connection ~ 1450 4100
Connection ~ 1150 4000
Connection ~ 3050 3900
Connection ~ 1150 3050
Connection ~ 1450 3050
Connection ~ 1700 3050
Connection ~ 7700 900 
Connection ~ 8150 900 
Connection ~ 9850 1350
Connection ~ 8650 1850
Connection ~ 8750 1850
Connection ~ 8650 900 
Connection ~ 7300 2200
Connection ~ 3550 1750
Connection ~ 4400 1750
Connection ~ 4000 2050
Connection ~ 5150 2550
Connection ~ 5050 2550
Connection ~ 4950 2550
Connection ~ 4850 2550
Connection ~ 4750 2550
Connection ~ 4650 2550
Connection ~ 4550 2800
Connection ~ 4450 2800
Connection ~ 5350 7500
Connection ~ 5250 7500
Connection ~ 5150 7500
Connection ~ 5050 7500
Connection ~ 4950 7500
Connection ~ 4850 7500
Connection ~ 4750 7500
Connection ~ 4650 7500
Connection ~ 4350 2800
Connection ~ 2150 2300
Connection ~ 2200 3050
Connection ~ 1850 3050
Connection ~ 2600 4000
Connection ~ 7300 900 
Connection ~ 9950 2200
Connection ~ 3700 2800
Connection ~ 5250 2550
Connection ~ 5450 2550
Connection ~ 900  4000
Connection ~ 3050 4100
Connection ~ 2600 4100
Connection ~ 7950 900 
NoConn ~ 8150 1450
NoConn ~ 7000 2950
NoConn ~ 2400 4100
NoConn ~ 2400 4200
NoConn ~ 3850 4400
NoConn ~ 3850 4500
NoConn ~ 3850 4600
NoConn ~ 3850 4700
NoConn ~ 3850 5200
NoConn ~ 3850 5300
NoConn ~ 3850 5400
NoConn ~ 3850 5500
NoConn ~ 3850 6000
NoConn ~ 3850 6100
NoConn ~ 3850 6200
NoConn ~ 3850 6300
NoConn ~ 3850 6400
NoConn ~ 3850 6600
NoConn ~ 3850 6800
NoConn ~ 3850 6900
NoConn ~ 3850 7000
NoConn ~ 3850 7100
$EndSCHEMATC
